vivado_proj/.Xil/Vivado-27297-TowerOfPower/hw_ila_data_1/zip_work/waveform.vcd
$date
        2019-Mar-27 14:14:35
$end
$version
        Vivado v2018.3 (64-bit)
$end
$timescale
        1ps
$end
$scope module dut $end
$var reg 16 " hdmi_in_i/ov5640_modder_0/U0/video_probe0_xy_position0_pix_counter_reg [15:0] $end
$var reg 1 2 hdmi_in_i/ov5640_modder_0/U0/video_probe0_xy_position0_eol_d $end
$var reg 1 3 hdmi_in_i/ov5640_modder_0/axis_in_tlast $end
$var reg 1 4 hdmi_in_i/ov5640_modder_0/axis_in_tuser $end
$var reg 1 5 u_ila_0_axis_in_tvalid $end
$var reg 1 6 hdmi_in_i/ov5640_modder_0/axis_out_tlast $end
$var reg 1 7 u_ila_0_axis_out_tready $end
$var reg 1 8 hdmi_in_i/ov5640_modder_0/axis_out_tuser $end
$var reg 1 9 u_ila_0_axis_out_tvalid $end
$var reg 1 : hdmi_in_i/ov5640_modder_0/U0/video_probe0_xy_position0_sof_d_reg_n_0 $end
$var reg 1 ; _TRIGGER $end
$var reg 1 < _WINDOW $end
$var reg 1 = _GAP $end
$upscope $end
$enddefinitions $end
#0
$dumpvars
b1111111111111111 "
12
13
04
05
06
17
08
19
0:
0;
1<
0=
$end
#100
03
15
1;
#101
02
05
#102
15
#103
05
#104
15
#105
05
#106
15
#107
05
#108
15
#109
05
#110
15
#111
05
#112
15
#113
05
#114
15
#115
05
#116
15
#117
05
#118
15
#119
05
#120
15
#121
05
#122
15
#123
05
#125
15
#126
05
#127
15
#128
05
#129
15
#130
05
#131
15
#132
05
#133
15
#134
05
#135
15
#136
05
#137
15
#138
05
#139
15
#140
05
#141
15
#142
05
#143
15
#144
05
#145
15
#146
05
#147
15
#148
05
#149
15
#150
05
#151
15
#152
05
#153
15
#154
05
#155
15
#156
05
#157
15
#158
05
#159
15
#160
05
#161
15
#162
05
#163
15
#164
05
#165
15
#166
05
#167
15
#168
05
#169
15
#170
05
#171
15
#172
05
#173
15
#174
05
#175
15
#176
05
#177
15
#178
05
#179
15
#180
05
#181
15
#182
05
#183
15
#184
05
#185
15
#186
05
#187
15
#188
05
#189
15
#190
05
#191
15
#192
05
#193
15
#194
05
#195
15
#196
05
#197
15
#198
05
#199
15
#200
05
#201
15
#202
05
#203
15
#204
05
#205
15
#206
05
#207
15
#208
05
#209
15
#210
05
#211
15
#212
05
#213
15
#214
05
#215
15
#216
05
#217
15
#218
05
#219
15
#220
05
#221
15
#222
05
#224
15
#225
05
#226
15
#227
05
#228
15
#229
05
#230
15
#231
05
#232
15
#233
05
#234
15
#235
05
#236
15
#237
05
#238
15
#239
05
#240
15
#241
05
#242
15
#243
05
#244
15
#245
05
#246
15
#247
05
#248
15
#249
05
#250
15
#251
05
#252
15
#253
05
#254
15
#255
05
#256
15
#257
05
#258
15
#259
05
#260
15
#261
05
#262
15
#263
05
#264
15
#265
05
#266
15
#267
05
#268
15
#269
05
#270
15
#271
05
#272
15
#273
05
#274
15
#275
05
#276
15
#277
05
#278
15
#279
05
#280
15
#281
05
#282
15
#283
05
#284
15
#285
05
#286
15
#287
05
#288
15
#289
05
#290
15
#291
05
#292
15
#293
05
#294
15
#295
05
#296
15
#297
05
#298
15
#299
05
#300
15
#301
05
#302
15
#303
05
#304
15
#305
05
#306
15
#307
05
#308
15
#309
05
#310
15
#311
05
#312
15
#313
05
#314
15
#315
05
#316
15
#317
05
#318
15
#319
05
#320
15
#321
05
#322
15
#323
05
#325
15
#326
05
#327
15
#328
05
#329
15
#330
05
#331
15
#332
05
#333
15
#334
05
#335
15
#336
05
#337
15
#338
05
#339
15
#340
05
#341
15
#342
05
#343
15
#344
05
#345
15
#346
05
#347
15
#348
05
#349
15
#350
05
#351
15
#352
05
#353
15
#354
05
#355
15
#356
05
#357
15
#358
05
#359
15
#360
05
#361
15
#362
05
#363
15
#364
05
#365
15
#366
05
#367
15
#368
05
#369
15
#370
05
#371
15
#372
05
#373
15
#374
05
#375
15
#376
05
#377
15
#378
05
#379
15
#380
05
#381
15
#382
05
#383
15
#384
05
#385
15
#386
05
#387
15
#388
05
#389
15
#390
05
#391
15
#392
05
#393
15
#394
05
#395
15
#396
05
#397
15
#398
05
#399
15
#400
05
#401
15
#402
05
#403
15
#404
05
#405
15
#406
05
#407
15
#408
05
#409
15
#410
05
#411
15
#412
05
#413
15
#414
05
#415
15
#416
05
#417
15
#418
05
#419
15
#420
05
#421
15
#422
05
#423
15
#424
05
#426
15
#427
05
#428
15
#429
05
#430
15
#431
05
#432
15
#433
05
#434
15
#435
05
#436
15
#437
05
#438
15
#439
05
#440
15
#441
05
#442
15
#443
05
#444
15
#445
05
#446
15
#447
05
#448
15
#449
05
#450
15
#451
05
#452
15
#453
05
#454
15
#455
05
#456
15
#457
05
#458
15
#459
05
#460
15
#461
05
#462
15
#463
05
#464
15
#465
05
#466
15
#467
05
#468
15
#469
05
#470
15
#471
05
#472
15
#473
05
#474
15
#475
05
#476
15
#477
05
#478
15
#479
05
#480
15
#481
05
#482
15
#483
05
#484
15
#485
05
#486
15
#487
05
#488
15
#489
05
#490
15
#491
05
#492
15
#493
05
#494
15
#495
05
#496
15
#497
05
#498
15
#499
05
#500
15
#501
05
#502
15
#503
05
#504
15
#505
05
#506
15
#507
05
#508
15
#509
05
#510
15
#511
05
#512
15
#513
05
#514
15
#515
05
#516
15
#517
05
#518
15
#519
05
#520
15
#521
05
#522
15
#523
05
#525
15
#526
05
#527
15
#528
05
#529
15
#530
05
#531
15
#532
05
#533
15
#534
05
#535
15
#536
05
#537
15
#538
05
#539
15
#540
05
#541
15
#542
05
#543
15
#544
05
#545
15
#546
05
#547
15
#548
05
#549
15
#550
05
#551
15
#552
05
#553
15
#554
05
#555
15
#556
05
#557
15
#558
05
#559
15
#560
05
#561
15
#562
05
#563
15
#564
05
#565
15
#566
05
#567
15
#568
05
#569
15
#570
05
#571
15
#572
05
#573
15
#574
05
#575
15
#576
05
#577
15
#578
05
#579
15
#580
05
#581
15
#582
05
#583
15
#584
05
#585
15
#586
05
#587
15
#588
05
#589
15
#590
05
#591
15
#592
05
#593
15
#594
05
#595
15
#596
05
#597
15
#598
05
#599
15
#600
05
#601
15
#602
05
#603
15
#604
05
#605
15
#606
05
#607
15
#608
05
#609
15
#610
05
#611
15
#612
05
#613
15
#614
05
#615
15
#616
05
#617
15
#618
05
#619
15
#620
05
#621
15
#622
05
#623
15
#624
05
#626
15
#627
05
#628
15
#629
05
#630
15
#631
05
#632
15
#633
05
16
#634
15
09
#635
05
#636
15
#637
05
#638
15
#639
05
#640
15
#641
05
#642
15
#643
05
#644
15
#645
05
#646
15
#647
05
#648
15
#649
05
#650
15
#651
05
#652
15
#653
05
#654
15
#655
05
#656
15
#657
05
#658
15
#659
05
#660
15
#661
05
#662
15
#663
05
#664
15
#665
05
#666
15
#667
05
#668
15
#669
05
#670
15
#671
05
#672
15
#673
05
#674
15
#675
05
#676
15
#677
05
#678
15
#679
05
#680
15
#681
05
#682
15
#683
05
#684
15
#685
05
#686
15
#687
05
#688
15
#689
05
#690
15
#691
05
#692
15
#693
05
#694
15
#695
05
#696
15
#697
05
#698
15
#699
05
#700
15
#701
05
#702
15
#703
05
#704
15
#705
05
#706
15
#707
05
#708
15
#709
05
#710
15
#711
05
#712
15
#713
05
#714
15
#715
05
#716
15
#717
05
#718
15
#719
05
#720
15
#721
05
#722
15
#723
05
#724
15
#725
05
#727
15
#728
05
#729
15
#730
05
#731
15
#732
05
#733
15
#734
05
#735
15
#736
05
#737
15
#738
05
#739
15
#740
05
#741
15
#742
05
#743
15
#744
05
#745
15
#746
05
#747
15
#748
05
#749
15
#750
05
#751
15
#752
05
#753
15
#754
05
#755
15
#756
05
#757
15
#758
05
#759
15
#760
05
#761
15
#762
05
#763
15
#764
05
#765
15
#766
05
#767
15
#768
05
#769
15
#770
05
#771
15
#772
05
#773
15
#774
05
#775
15
#776
05
#777
15
#778
05
#779
15
#780
05
#781
15
#782
05
#783
15
#784
05
#785
15
#786
05
#787
15
#788
05
#789
15
#790
05
#791
15
#792
05
#793
15
#794
05
#795
15
#796
05
#797
15
#798
05
#799
15
#800
05
#801
15
#802
05
#803
15
#804
05
#805
15
#806
05
#807
15
#808
05
#809
15
#810
05
#811
15
#812
05
#813
15
#814
05
#815
15
#816
05
#817
15
#818
05
#819
15
#820
05
#821
15
#822
05
#823
15
#824
05
#826
15
#827
05
#828
15
#829
05
#830
15
#831
05
#832
15
#833
05
#834
15
#835
05
#836
15
#837
05
#838
15
#839
05
#840
15
#841
05
#842
15
#843
05
#844
15
#845
05
#846
15
#847
05
#848
15
#849
05
#850
15
#851
05
#852
15
#853
05
#854
15
#855
05
#856
15
#857
05
#858
15
#859
05
#860
15
#861
05
#862
15
#863
05
#864
15
#865
05
#866
15
#867
05
#868
15
#869
05
#870
15
#871
05
#872
15
#873
05
#874
15
#875
05
#876
15
#877
05
#878
15
#879
05
#880
15
#881
05
#882
15
#883
05
#884
15
#885
05
#886
15
#887
05
#888
15
#889
05
#890
15
#891
05
#892
15
#893
05
#894
15
#895
05
#896
15
#897
05
#898
15
#899
05
#900
15
#901
05
#902
15
#903
05
#904
15
#905
05
#906
15
#907
05
#908
15
#909
05
#910
15
#911
05
#912
15
#913
05
#914
15
#915
05
#916
15
#917
05
#918
15
#919
05
#920
15
#921
05
#922
15
#923
05
#924
15
#925
05
#927
15
#928
05
#929
15
#930
05
#931
15
#932
05
#933
15
#934
05
#935
15
#936
05
#937
15
#938
05
#939
15
#940
05
#941
15
#942
05
#943
15
#944
05
#945
15
#946
05
#947
15
#948
05
#949
15
#950
05
#951
15
#952
05
#953
15
#954
05
#955
15
#956
05
#957
15
#958
05
#959
15
#960
05
#961
15
#962
05
#963
15
#964
05
#965
15
#966
05
#967
15
#968
05
#969
15
#970
05
#971
15
#972
05
#973
15
#974
05
#975
15
#976
05
#977
15
#978
05
#979
15
#980
05
#981
15
#982
05
#983
15
#984
05
#985
15
#986
05
#987
15
#988
05
#989
15
#990
05
#991
15
#992
05
#993
15
#994
05
#995
15
#996
05
#997
15
#998
05
#999
15
#1000
05
#1001
15
#1002
05
#1003
15
#1004
05
#1005
15
#1006
05
#1007
15
#1008
05
#1009
15
#1010
05
#1011
15
#1012
05
#1013
15
#1014
05
#1015
15
#1016
05
#1017
15
#1018
05
#1019
15
#1020
05
#1021
15
#1022
05
#1023
15
#1024
05
#1025
15
#1026
05
#1028
15
#1029
05
#1030
15
#1031
05
#1032
15
#1033
05
#1034
15
#1035
05
#1036
15
#1037
05
#1038
15
#1039
05
#1040
15
#1041
05
#1042
15
#1043
05
#1044
15
#1045
05
#1046
15
#1047
05
#1048
15
#1049
05
#1050
15
#1051
05
#1052
15
#1053
05
#1054
15
#1055
05
#1056
15
#1057
05
#1058
15
#1059
05
#1060
15
#1061
05
#1062
15
#1063
05
#1064
15
#1065
05
#1066
15
#1067
05
#1068
15
#1069
05
#1070
15
#1071
05
#1072
15
#1073
05
#1074
15
#1075
05
#1076
15
#1077
05
#1078
15
#1079
05
#1080
15
#1081
05
#1082
15
#1083
05
#1084
15
#1085
05
#1086
15
#1087
05
#1088
15
#1089
05
#1090
15
#1091
05
#1092
15
#1093
05
#1094
15
#1095
05
#1096
15
#1097
05
#1098
15
#1099
05
#1100
15
#1101
05
#1102
15
#1103
05
#1104
15
#1105
05
#1106
15
#1107
05
#1108
15
#1109
05
#1110
15
#1111
05
#1112
15
#1113
05
#1114
15
#1115
05
#1116
15
#1117
05
#1118
15
#1119
05
#1120
15
#1121
05
#1122
15
#1123
05
#1124
15
#1125
05
#1127
15
#1128
05
#1129
15
#1130
05
#1131
15
#1132
05
#1133
15
#1134
05
#1135
15
#1136
05
#1137
15
#1138
05
#1139
15
#1140
05
#1141
15
#1142
05
#1143
15
#1144
05
#1145
15
#1146
05
#1147
15
#1148
05
#1149
15
#1150
05
#1151
15
#1152
05
#1153
15
#1154
05
#1155
15
#1156
05
#1157
15
#1158
05
#1159
15
#1160
05
#1161
15
#1162
05
#1163
15
#1164
05
#1165
15
#1166
05
#1167
15
#1168
05
#1169
15
#1170
05
#1171
15
#1172
05
#1173
15
#1174
05
#1175
15
#1176
05
#1177
15
#1178
05
#1179
15
#1180
05
#1181
15
#1182
05
#1183
15
#1184
05
#1185
15
#1186
05
#1187
15
#1188
05
#1189
15
#1190
05
#1191
15
#1192
05
#1193
15
#1194
05
#1195
15
#1196
05
#1197
15
#1198
05
#1199
15
#1200
05
#1201
15
#1202
05
#1203
15
#1204
05
#1205
15
#1206
05
#1207
15
#1208
05
#1209
15
#1210
05
#1211
15
#1212
05
#1213
15
#1214
05
#1215
15
#1216
05
#1217
15
#1218
05
#1219
15
#1220
05
#1221
15
#1222
05
#1223
15
#1224
05
#1225
15
#1226
05
#1228
15
#1229
05
#1230
15
#1231
05
#1232
15
#1233
05
#1234
15
#1235
05
#1236
15
#1237
05
#1238
15
#1239
05
#1240
15
#1241
05
#1242
15
#1243
05
#1244
15
#1245
05
#1246
15
#1247
05
#1248
15
#1249
05
#1250
15
#1251
05
#1252
15
#1253
05
#1254
15
#1255
05
#1256
15
#1257
05
#1258
15
#1259
05
#1260
15
#1261
05
#1262
15
#1263
05
#1264
15
#1265
05
#1266
15
#1267
05
#1268
15
#1269
05
#1270
15
#1271
05
#1272
15
#1273
05
#1274
15
#1275
05
#1276
15
#1277
05
#1278
15
#1279
05
#1280
15
#1281
05
#1282
15
#1283
05
#1284
15
#1285
05
#1286
15
#1287
05
#1288
15
#1289
05
#1290
15
#1291
05
#1292
15
#1293
05
#1294
15
#1295
05
#1296
15
#1297
05
#1298
15
#1299
05
#1300
15
#1301
05
#1302
15
#1303
05
#1304
15
#1305
05
#1306
15
#1307
05
#1308
15
#1309
05
#1310
15
#1311
05
#1312
15
#1313
05
#1314
15
#1315
05
#1316
15
#1317
05
#1318
15
#1319
05
#1320
15
#1321
05
#1322
15
#1323
05
#1324
15
#1325
05
#1327
15
#1328
05
#1329
15
#1330
05
#1331
15
#1332
05
#1333
15
#1334
05
#1335
15
#1336
05
#1337
15
#1338
05
#1339
15
#1340
05
#1341
15
#1342
05
#1343
15
#1344
05
#1345
15
#1346
05
#1347
15
#1348
05
#1349
15
#1350
05
#1351
15
#1352
05
#1353
15
#1354
05
#1355
15
#1356
05
#1357
15
#1358
05
#1359
15
#1360
05
#1361
15
#1362
05
#1363
15
#1364
05
#1365
15
#1366
05
#1367
15
#1368
05
#1369
15
#1370
05
#1371
15
#1372
05
#1373
15
#1374
05
#1375
15
#1376
05
#1377
15
#1378
05
#1379
15
#1380
05
#1381
15
#1382
05
#1383
15
#1384
05
#1385
15
#1386
05
#1387
15
#1388
05
#1389
15
#1390
05
#1391
15
#1392
05
#1393
15
#1394
05
#1395
15
#1396
05
#1397
15
#1398
05
#1399
15
#1400
05
#1401
15
#1402
05
#1403
15
#1404
05
#1405
15
#1406
05
#1407
15
#1408
05
#1409
15
#1410
05
#1411
15
#1412
05
#1413
15
#1414
05
#1415
15
#1416
05
#1417
15
#1418
05
#1419
15
#1420
05
#1421
15
#1422
05
#1423
15
#1424
05
#1425
15
#1426
05
#1428
15
#1429
05
#1430
15
#1431
05
#1432
15
#1433
05
#1434
15
#1435
05
#1436
15
#1437
05
#1438
15
#1439
05
#1440
15
#1441
05
#1442
15
#1443
05
#1444
15
#1445
05
#1446
15
#1447
05
#1448
15
#1449
05
#1450
15
#1451
05
#1452
15
#1453
05
#1454
15
#1455
05
#1456
15
#1457
05
#1458
15
#1459
05
#1460
15
#1461
05
#1462
15
#1463
05
#1464
15
#1465
05
#1466
15
#1467
05
#1468
15
#1469
05
#1470
15
#1471
05
#1472
15
#1473
05
#1474
15
#1475
05
#1476
15
#1477
05
#1478
15
#1479
05
#1480
15
#1481
05
#1482
15
#1483
05
#1484
15
#1485
05
#1486
15
#1487
05
#1488
15
#1489
05
#1490
15
#1491
05
#1492
15
#1493
05
#1494
15
#1495
05
#1496
15
#1497
05
#1498
15
#1499
05
#1500
15
#1501
05
#1502
15
#1503
05
#1504
15
#1505
05
#1506
15
#1507
05
#1508
15
#1509
05
#1510
15
#1511
05
#1512
15
#1513
05
#1514
15
#1515
05
#1516
15
#1517
05
#1518
15
#1519
05
#1520
15
#1521
05
#1522
15
#1523
05
#1524
15
#1525
05
#1526
15
#1527
05
#1529
15
#1530
05
#1531
15
#1532
05
#1533
15
#1534
05
#1535
15
#1536
05
#1537
15
#1538
05
#1539
15
#1540
05
#1541
15
#1542
05
#1543
15
#1544
05
#1545
15
#1546
05
#1547
15
#1548
05
#1549
15
#1550
05
#1551
15
#1552
05
#1553
15
#1554
05
#1555
15
#1556
05
#1557
15
#1558
05
#1559
15
#1560
05
#1561
15
#1562
05
#1563
15
#1564
05
#1565
15
#1566
05
#1567
15
#1568
05
#1569
15
#1570
05
#1571
15
#1572
05
#1573
15
#1574
05
#1575
15
#1576
05
#1577
15
#1578
05
#1579
15
#1580
05
#1581
15
#1582
05
#1583
15
#1584
05
#1585
15
#1586
05
#1587
15
#1588
05
#1589
15
#1590
05
#1591
15
#1592
05
#1593
15
#1594
05
#1595
15
#1596
05
#1597
15
#1598
05
#1599
15
#1600
05
#1601
15
#1602
05
#1603
15
#1604
05
#1605
15
#1606
05
#1607
15
#1608
05
#1609
15
#1610
05
#1611
15
#1612
05
#1613
15
#1614
05
#1615
15
#1616
05
#1617
15
#1618
05
#1619
15
#1620
05
#1621
15
#1622
05
#1623
15
#1624
05
#1625
15
#1626
05
#1628
15
#1629
05
#1630
15
#1631
05
#1632
15
#1633
05
#1634
15
#1635
05
#1636
15
#1637
05
#1638
15
#1639
05
#1640
15
#1641
05
#1642
15
#1643
05
#1644
15
#1645
05
#1646
15
#1647
05
#1648
15
#1649
05
#1650
15
#1651
05
#1652
15
#1653
05
#1654
15
#1655
05
#1656
15
#1657
05
#1658
15
#1659
05
#1660
15
#1661
05
#1662
15
#1663
05
#1664
15
#1665
05
#1666
15
#1667
05
#1668
15
#1669
05
#1670
15
#1671
05
#1672
15
#1673
05
#1674
15
#1675
05
#1676
15
#1677
05
#1678
15
#1679
05
#1680
15
#1681
05
#1682
15
#1683
05
#1684
15
#1685
05
#1686
15
#1687
05
#1688
15
#1689
05
#1690
15
#1691
05
#1692
15
#1693
05
#1694
15
#1695
05
#1696
15
#1697
05
#1698
15
#1699
05
#1700
15
#1701
05
#1702
15
#1703
05
#1704
15
#1705
05
#1706
15
#1707
05
#1708
15
#1709
05
#1710
15
#1711
05
#1712
15
#1713
05
#1714
15
#1715
05
#1716
15
#1717
05
#1718
15
#1719
05
#1720
15
#1721
05
#1722
15
#1723
05
#1724
15
#1725
05
#1727
15
#1728
05
#1729
15
#1730
05
#1731
15
#1732
05
#1733
15
#1734
05
#1735
15
#1736
05
#1737
15
#1738
05
#1739
15
#1740
05
#1741
15
#1742
05
#1743
15
#1744
05
#1745
15
#1746
05
#1747
15
#1748
05
#1749
15
#1750
05
#1751
15
#1752
05
#1753
15
#1754
05
#1755
15
#1756
05
#1757
15
#1758
05
#1759
15
#1760
05
#1761
15
#1762
05
#1763
15
#1764
05
#1765
15
#1766
05
#1767
15
#1768
05
#1769
15
#1770
05
#1771
15
#1772
05
#1773
15
#1774
05
#1775
15
#1776
05
#1777
15
#1778
05
#1779
15
#1780
05
#1781
15
#1782
05
#1783
15
#1784
05
#1785
15
#1786
05
#1787
15
#1788
05
#1789
15
#1790
05
#1791
15
#1792
05
#1793
15
#1794
05
#1795
15
#1796
05
#1797
15
#1798
05
#1799
15
#1800
05
#1801
15
#1802
05
#1803
15
#1804
05
#1805
15
#1806
05
#1807
15
#1808
05
#1809
15
#1810
05
#1811
15
#1812
05
#1813
15
#1814
05
#1815
15
#1816
05
#1817
15
#1818
05
#1819
15
#1820
05
#1821
15
#1822
05
#1823
15
#1824
05
#1825
15
#1826
05
#1828
15
#1829
05
#1830
15
#1831
05
#1832
15
#1833
05
#1834
15
#1835
05
#1836
15
#1837
05
#1838
15
#1839
05
#1840
15
#1841
05
#1842
15
#1843
05
#1844
15
#1845
05
#1846
15
#1847
05
#1848
15
#1849
05
#1850
15
#1851
05
#1852
15
#1853
05
#1854
15
#1855
05
#1856
15
#1857
05
#1858
15
#1859
05
#1860
15
#1861
05
#1862
15
#1863
05
#1864
15
#1865
05
#1866
15
#1867
05
#1868
15
#1869
05
#1870
15
#1871
05
#1872
15
#1873
05
#1874
15
#1875
05
#1876
15
#1877
05
#1878
15
#1879
05
#1880
15
#1881
05
#1882
15
#1883
05
#1884
15
#1885
05
#1886
15
#1887
05
#1888
15
#1889
05
#1890
15
#1891
05
#1892
15
#1893
05
#1894
15
#1895
05
#1896
15
#1897
05
#1898
15
#1899
05
#1900
15
#1901
05
#1902
15
#1903
05
#1904
15
#1905
05
#1906
15
#1907
05
#1908
15
#1909
05
#1910
15
#1911
05
#1912
15
#1913
05
#1914
15
#1915
05
#1916
15
#1917
05
#1918
15
#1919
05
#1920
15
#1921
05
#1922
15
#1923
05
#1924
15
#1925
05
#1927
15
#1928
05
#1929
15
#1930
05
#1931
15
#1932
05
#1933
15
#1934
05
#1935
15
#1936
05
#1937
15
#1938
05
#1939
15
#1940
05
#1941
15
#1942
05
#1943
15
#1944
05
#1945
15
#1946
05
#1947
15
#1948
05
#1949
15
#1950
05
#1951
15
#1952
05
#1953
15
#1954
05
#1955
15
#1956
05
#1957
15
#1958
05
#1959
15
#1960
05
#1961
15
#1962
05
#1963
15
#1964
05
#1965
15
#1966
05
#1967
15
#1968
05
#1969
15
#1970
05
#1971
15
#1972
05
#1973
15
#1974
05
#1975
15
#1976
05
#1977
15
#1978
05
#1979
15
#1980
05
#1981
15
#1982
05
#1983
15
#1984
05
#1985
15
#1986
05
#1987
15
#1988
05
#1989
15
#1990
05
#1991
15
#1992
05
#1993
15
#1994
05
#1995
15
#1996
05
#1997
15
#1998
05
#1999
15
#2000
05
#2001
15
#2002
05
#2003
15
#2004
05
#2005
15
#2006
05
#2007
15
#2008
05
#2009
15
#2010
05
#2011
15
#2012
05
#2013
15
#2014
05
#2015
15
#2016
05
#2017
15
#2018
05
#2019
15
#2020
05
#2021
15
#2022
05
#2023
15
#2024
05
#2025
15
#2026
05
#2028
15
#2029
05
#2030
15
#2031
05
#2032
15
#2033
05
#2034
15
#2035
05
#2036
15
#2037
05
#2038
15
#2039
05
#2040
15
#2041
05
#2042
15
#2043
05
#2044
15
#2045
05
#2046
15
#2047
05
