vivado_proj/.Xil/Vivado-22066-TowerOfPower/hw_ila_data_1/zip_work/waveform.vcd
$date
        2019-Feb-13 10:57:57
$end
$version
        Vivado v2018.3 (64-bit)
$end
$timescale
        1ps
$end
$scope module dut $end
$var reg 24 " hdmi_in_i/v_vid_in_axi4s_0/vid_data [23:0] $end
$var reg 24 : hdmi_in_i/v_vid_in_axi4s_0/m_axis_video_tdata [23:0] $end
$var reg 1 R hdmi_in_i/v_vid_in_axi4s_0/m_axis_video_tlast $end
$var reg 1 S u_ila_0_m_axis_video_tready $end
$var reg 1 T hdmi_in_i/v_vid_in_axi4s_0/m_axis_video_tuser $end
$var reg 1 U u_ila_0_m_axis_video_tvalid $end
$var reg 1 V u_ila_0_vid_hsync $end
$var reg 1 W u_ila_0_vid_vsync $end
$var reg 1 X hdmi_in_i/v_vid_in_axi4s_0/vid_active_video $end
$var reg 1 Y _TRIGGER $end
$var reg 1 Z _WINDOW $end
$var reg 1 [ _GAP $end
$upscope $end
$enddefinitions $end
#0
$dumpvars
b101000011100111100000000 "
b110000000100000000 :
0R
1S
0T
0U
0V
0W
1X
0Y
1Z
0[
$end
#1
b101000101100111100000000 "
#3
b101000111100111100000000 "
#5
b101001001100111100000000 "
#7
b101001011100111100000000 "
#9
b101001101100111100000000 "
#11
b101001111100111100000000 "
#13
b101010001100111100000000 "
#15
b101010011100111100000000 "
#17
b101010101100111100000000 "
#19
b101010111100111100000000 "
#21
b101011001100111100000000 "
#23
b101011011100111100000000 "
#25
b101011101100111100000000 "
#27
b101011111100111100000000 "
#29
b101100001100111100000000 "
#31
b101100011100111100000000 "
#33
b101100101100111100000000 "
#35
b101100111100111100000000 "
#37
b101101001100111100000000 "
#39
b101101011100111100000000 "
#41
b101101101100111100000000 "
#43
b101101111100111100000000 "
#45
b101110001100111100000000 "
#47
b101110011100111100000000 "
#49
b101110101100111100000000 "
#51
b101110111100111100000000 "
#53
b101111001100111100000000 "
#55
b101111011100111100000000 "
#57
b101111101100111100000000 "
#59
b101111111100111100000000 "
#62
b110000001100111100000000 "
#64
b110000011100111100000000 "
#66
b110000101100111100000000 "
#68
b110000111100111100000000 "
#70
b110001001100111100000000 "
#72
b110001011100111100000000 "
#74
b110001101100111100000000 "
#76
b110001111100111100000000 "
#78
b110010001100111100000000 "
#80
b110010011100111100000000 "
#82
b110010101100111100000000 "
#84
b110010111100111100000000 "
#86
b110011001100111100000000 "
#88
b110011011100111100000000 "
#90
b110011101100111100000000 "
#92
b110011111100111100000000 "
#94
b110100001100111100000000 "
#96
b110100011100111100000000 "
#98
b110100101100111100000000 "
#100
b110100111100111100000000 "
#102
b110101001100111100000000 "
#104
b110101011100111100000000 "
#106
b110101101100111100000000 "
#108
b110101111100111100000000 "
#110
b110110001100111100000000 "
#112
b110110011100111100000000 "
#114
b110110101100111100000000 "
#116
b110110111100111100000000 "
#118
b110111001100111100000000 "
#120
b110111011100111100000000 "
#122
b110111101100111100000000 "
#124
b110111111100111100000000 "
#126
b111000001100111100000000 "
#128
b111000011100111100000000 "
#130
b111000101100111100000000 "
#132
b111000111100111100000000 "
#134
b111001001100111100000000 "
#136
b111001011100111100000000 "
#138
b111001101100111100000000 "
#140
b111001111100111100000000 "
#142
b111010001100111100000000 "
#144
b111010011100111100000000 "
#146
b111010101100111100000000 "
#148
b111010111100111100000000 "
#150
b111011001100111100000000 "
#152
b111011011100111100000000 "
#154
b111011101100111100000000 "
#156
b111011111100111100000000 "
#158
b111100001100111100000000 "
#160
b111100011100111100000000 "
#163
b111100101100111100000000 "
#165
b111100111100111100000000 "
#167
b111101001100111100000000 "
#169
b111101011100111100000000 "
#171
b111101101100111100000000 "
#173
b111101111100111100000000 "
#175
b111110001100111100000000 "
#177
b111110011100111100000000 "
#179
b111110101100111100000000 "
#181
b111110111100111100000000 "
#183
b111111001100111100000000 "
#185
b111111011100111100000000 "
#187
b111111101100111100000000 "
#189
b111111111100111100000000 "
#191
b1100111100000000 "
#193
b11100111100000000 "
#195
b101100111100000000 "
#197
b111100111100000000 "
#199
b1001100111100000000 "
#201
b1011100111100000000 "
#203
b1101100111100000000 "
#205
b1111100111100000000 "
#207
b10001100111100000000 "
#209
b10011100111100000000 "
#211
b10101100111100000000 "
#213
b10111100111100000000 "
#215
b11001100111100000000 "
#217
b11011100111100000000 "
#219
b11101100111100000000 "
#221
b11111100111100000000 "
#223
b100001100111100000000 "
#225
b100011100111100000000 "
#227
b100101100111100000000 "
#229
b100111100111100000000 "
#231
b101001100111100000000 "
#233
b101011100111100000000 "
#235
b101101100111100000000 "
#237
b101111100111100000000 "
#239
b110001100111100000000 "
#241
b110011100111100000000 "
#243
b110101100111100000000 "
#245
b110111100111100000000 "
#247
b111001100111100000000 "
#249
b111011100111100000000 "
#251
b111101100111100000000 "
#253
b111111100111100000000 "
#255
b1000001100111100000000 "
#257
b1000011100111100000000 "
#259
b1000101100111100000000 "
#262
b1000111100111100000000 "
#264
b1001001100111100000000 "
#266
b1001011100111100000000 "
#268
b1001101100111100000000 "
#270
b1001111100111100000000 "
#272
b1010001100111100000000 "
#274
b1010011100111100000000 "
#276
b1010101100111100000000 "
#278
b1010111100111100000000 "
#280
b1011001100111100000000 "
#282
b1011011100111100000000 "
#284
b1011101100111100000000 "
#286
b1011111100111100000000 "
#288
b1100001100111100000000 "
#290
b1100011100111100000000 "
#292
b1100101100111100000000 "
#294
b1100111100111100000000 "
#296
b1101001100111100000000 "
#298
b1101011100111100000000 "
#300
b1101101100111100000000 "
#302
b1101111100111100000000 "
#304
b1110001100111100000000 "
#306
b1110011100111100000000 "
#308
b1110101100111100000000 "
#310
b1110111100111100000000 "
#312
b1111001100111100000000 "
#314
b1111011100111100000000 "
#316
b1111101100111100000000 "
#318
b1111111100111100000000 "
#320
b10000001100111100000000 "
#322
b10000011100111100000000 "
#324
b10000101100111100000000 "
#326
b10000111100111100000000 "
#328
b10001001100111100000000 "
#330
b10001011100111100000000 "
#332
b10001101100111100000000 "
#334
b10001111100111100000000 "
#336
b10010001100111100000000 "
#338
b10010011100111100000000 "
#340
b10010101100111100000000 "
#342
b10010111100111100000000 "
#344
b10011001100111100000000 "
#346
b10011011100111100000000 "
#348
b10011101100111100000000 "
#350
b10011111100111100000000 "
#352
b10100001100111100000000 "
#354
b10100011100111100000000 "
#356
b10100101100111100000000 "
#358
b10100111100111100000000 "
#360
b10101001100111100000000 "
#363
b10101011100111100000000 "
#365
b10101101100111100000000 "
#367
b10101111100111100000000 "
#369
b10110001100111100000000 "
#371
b10110011100111100000000 "
#373
b10110101100111100000000 "
#375
b10110111100111100000000 "
#377
b10111001100111100000000 "
#379
b10111011100111100000000 "
#381
b10111101100111100000000 "
#383
b10111111100111100000000 "
#385
b11000001100111100000000 "
#387
b11000011100111100000000 "
#389
b11000101100111100000000 "
#391
b11000111100111100000000 "
#393
b11001001100111100000000 "
#395
b11001011100111100000000 "
#397
b11001101100111100000000 "
#399
b11001111100111100000000 "
#401
b11010001100111100000000 "
#403
b11010011100111100000000 "
#405
b11010101100111100000000 "
#407
b11010111100111100000000 "
#409
b11011001100111100000000 "
#411
b11011011100111100000000 "
#413
b11011101100111100000000 "
#415
b11011111100111100000000 "
#417
b11100001100111100000000 "
#419
b11100011100111100000000 "
#421
b11100101100111100000000 "
#423
b11100111100111100000000 "
#425
b11101001100111100000000 "
#427
b11101011100111100000000 "
#429
b11101101100111100000000 "
#431
b11101111100111100000000 "
#433
b11110001100111100000000 "
#435
b11110011100111100000000 "
#437
b11110101100111100000000 "
#439
b11110111100111100000000 "
#441
b11111001100111100000000 "
#443
b11111011100111100000000 "
#445
b11111101100111100000000 "
#447
b11111111100111100000000 "
#449
b100000001100111100000000 "
#451
b100000011100111100000000 "
#453
b100000101100111100000000 "
#455
b100000111100111100000000 "
#457
b100001001100111100000000 "
#459
b100001011100111100000000 "
#462
b100001101100111100000000 "
#464
b100001111100111100000000 "
#466
b100010001100111100000000 "
#468
b100010011100111100000000 "
#470
b100010101100111100000000 "
#472
b100010111100111100000000 "
#474
b100011001100111100000000 "
#476
b100011011100111100000000 "
#478
b100011101100111100000000 "
#480
b100011111100111100000000 "
#482
b100100001100111100000000 "
#484
b100100011100111100000000 "
#486
b100100101100111100000000 "
#488
b100100111100111100000000 "
#490
b100101001100111100000000 "
#492
b100101011100111100000000 "
#494
b100101101100111100000000 "
#496
b100101111100111100000000 "
#498
b100110001100111100000000 "
#500
b100110011100111100000000 "
#502
b100110101100111100000000 "
#504
b100110111100111100000000 "
#506
b100111001100111100000000 "
#508
b100111011100111100000000 "
#510
b100111101100111100000000 "
#512
b100111111100111100000000 "
#514
b101000001100111100000000 "
#516
b101000011100111100000000 "
#518
b101000101100111100000000 "
#520
b101000111100111100000000 "
#522
b101001001100111100000000 "
#524
b101001011100111100000000 "
#526
b101001101100111100000000 "
#528
b101001111100111100000000 "
#530
b101010001100111100000000 "
#532
b101010011100111100000000 "
#534
b101010101100111100000000 "
#536
b101010111100111100000000 "
#538
b101011001100111100000000 "
#540
b101011011100111100000000 "
#542
b101011101100111100000000 "
#544
b101011111100111100000000 "
#546
b101100001100111100000000 "
#548
b101100011100111100000000 "
#550
b101100101100111100000000 "
#552
b101100111100111100000000 "
#554
b101101001100111100000000 "
#556
b101101011100111100000000 "
#558
b101101101100111100000000 "
#560
b101101111100111100000000 "
#563
b101110001100111100000000 "
#565
b101110011100111100000000 "
#567
b101110101100111100000000 "
#569
b101110111100111100000000 "
#571
b101111001100111100000000 "
#573
b101111011100111100000000 "
#575
b101111101100111100000000 "
#577
b101111111100111100000000 "
#579
b110000001100111100000000 "
#581
b110000011100111100000000 "
#583
b110000101100111100000000 "
#585
b110000111100111100000000 "
#587
b110001001100111100000000 "
#589
b110001011100111100000000 "
#591
b110001101100111100000000 "
#593
b110001111100111100000000 "
#595
b110010001100111100000000 "
#597
b110010011100111100000000 "
#599
b110010101100111100000000 "
#601
b110010111100111100000000 "
#603
b110011001100111100000000 "
#605
b110011011100111100000000 "
#607
b110011101100111100000000 "
#609
b110011111100111100000000 "
#611
b110100001100111100000000 "
#613
b110100011100111100000000 "
#615
b110100101100111100000000 "
#617
b110100111100111100000000 "
#619
b110101001100111100000000 "
#621
b110101011100111100000000 "
#623
b110101101100111100000000 "
#625
b110101111100111100000000 "
#627
b110110001100111100000000 "
#629
b110110011100111100000000 "
#631
b110110101100111100000000 "
#633
b110110111100111100000000 "
#635
b110111001100111100000000 "
#637
b110111011100111100000000 "
#639
b110111101100111100000000 "
#641
b110111111100111100000000 "
#643
b111000001100111100000000 "
#645
b111000011100111100000000 "
#647
b111000101100111100000000 "
#649
b111000111100111100000000 "
#651
b111001001100111100000000 "
#653
b111001011100111100000000 "
#655
b111001101100111100000000 "
#657
b111001111100111100000000 "
#659
b111010001100111100000000 "
#662
b111010011100111100000000 "
#664
b111010101100111100000000 "
#666
b111010111100111100000000 "
#668
b111011001100111100000000 "
#670
b111011011100111100000000 "
#672
b111011101100111100000000 "
#674
b111011111100111100000000 "
#676
b111100001100111100000000 "
#678
b111100011100111100000000 "
#680
b111100101100111100000000 "
#682
b111100111100111100000000 "
#684
b111101001100111100000000 "
#686
b111101011100111100000000 "
#688
b111101101100111100000000 "
#690
b111101111100111100000000 "
#692
b111110001100111100000000 "
#694
b111110011100111100000000 "
#696
b111110101100111100000000 "
#698
b111110111100111100000000 "
#700
b111111001100111100000000 "
#702
b111111011100111100000000 "
#704
b111111101100111100000000 "
#706
b111111111100111100000000 "
#708
b1100111100000000 "
#710
b11100111100000000 "
#712
b101100111100000000 "
#714
b111100111100000000 "
#716
b1001100111100000000 "
#718
b1011100111100000000 "
#720
b1101100111100000000 "
#722
b1111100111100000000 "
#724
b10001100111100000000 "
#726
b10011100111100000000 "
#728
b10101100111100000000 "
#730
b10111100111100000000 "
#732
b11001100111100000000 "
#734
b11011100111100000000 "
#736
b11101100111100000000 "
#738
b11111100111100000000 "
#740
b100001100111100000000 "
#742
b100011100111100000000 "
#744
b100101100111100000000 "
#746
b100111100111100000000 "
#748
b101001100111100000000 "
#750
b101011100111100000000 "
#752
b101101100111100000000 "
#754
b101111100111100000000 "
#756
b110001100111100000000 "
#758
b110011100111100000000 "
#760
b110101100111100000000 "
#763
b110111100111100000000 "
#765
b111001100111100000000 "
#767
b111011100111100000000 "
#769
b111101100111100000000 "
#771
b111111100111100000000 "
#773
b1000001100111100000000 "
#775
b1000011100111100000000 "
#777
b1000101100111100000000 "
#779
b1000111100111100000000 "
#781
b1001001100111100000000 "
#783
b1001011100111100000000 "
#785
b1001101100111100000000 "
#787
b1001111100111100000000 "
#789
b1010001100111100000000 "
#791
b1010011100111100000000 "
#793
b1010101100111100000000 "
#795
b1010111100111100000000 "
#797
b1011001100111100000000 "
#799
b1011011100111100000000 "
#801
b1011101100111100000000 "
#803
b1011111100111100000000 "
#805
b1100001100111100000000 "
#807
b1100011100111100000000 "
#809
b1100101100111100000000 "
#811
b1100111100111100000000 "
#813
b1101001100111100000000 "
#815
b1101011100111100000000 "
#817
b1101101100111100000000 "
#819
b1101111100111100000000 "
#821
b1110001100111100000000 "
#823
b1110011100111100000000 "
#825
b1110101100111100000000 "
#827
b1110111100111100000000 "
#829
b1111001100111100000000 "
#831
b1111011100111100000000 "
#833
b1111101100111100000000 "
#835
b1111111100111100000000 "
#837
b10000001100111100000000 "
#839
b10000011100111100000000 "
#841
b10000101100111100000000 "
#843
b10000111100111100000000 "
#845
b10001001100111100000000 "
#847
b10001011100111100000000 "
#849
b10001101100111100000000 "
#851
b10001111100111100000000 "
#853
b10010001100111100000000 "
#855
b10010011100111100000000 "
#857
b10010101100111100000000 "
#859
b10010111100111100000000 "
#861
b10011001100111100000000 "
#864
b10011011100111100000000 "
#866
b10011101100111100000000 "
#868
b10011111100111100000000 "
#870
b10100001100111100000000 "
#872
b10100011100111100000000 "
#874
b10100101100111100000000 "
#876
b10100111100111100000000 "
#878
b10101001100111100000000 "
#880
b10101011100111100000000 "
#882
b10101101100111100000000 "
#884
b10101111100111100000000 "
#886
b10110001100111100000000 "
#888
b10110011100111100000000 "
#890
b10110101100111100000000 "
#892
b10110111100111100000000 "
#894
b10111001100111100000000 "
#896
b10111011100111100000000 "
#898
b10111101100111100000000 "
#900
b10111111100111100000000 "
#902
b11000001100111100000000 "
#904
b11000011100111100000000 "
#906
b11000101100111100000000 "
#908
b11000111100111100000000 "
#910
b11001001100111100000000 "
#912
b11001011100111100000000 "
#914
b11001101100111100000000 "
#916
b11001111100111100000000 "
#918
b11010001100111100000000 "
#920
b11010011100111100000000 "
#922
b11010101100111100000000 "
#924
b11010111100111100000000 "
#926
b11011001100111100000000 "
#928
b11011011100111100000000 "
#930
b11011101100111100000000 "
#932
b11011111100111100000000 "
#934
b11100001100111100000000 "
#936
b11100011100111100000000 "
#938
b11100101100111100000000 "
#940
b11100111100111100000000 "
#942
b11101001100111100000000 "
#944
b11101011100111100000000 "
#946
b11101101100111100000000 "
#948
b11101111100111100000000 "
#950
b11110001100111100000000 "
#952
b11110011100111100000000 "
#954
b11110101100111100000000 "
#956
b11110111100111100000000 "
#958
b11111001100111100000000 "
#960
b11111011100111100000000 "
#963
b11111101100111100000000 "
#965
b11111111100111100000000 "
#967
b100000001100111100000000 "
#969
b100000011100111100000000 "
#971
b100000101100111100000000 "
#973
b100000111100111100000000 "
#975
b100001001100111100000000 "
#977
b100001011100111100000000 "
#979
b100001101100111100000000 "
#981
b100001111100111100000000 "
#983
b100010001100111100000000 "
#985
b100010011100111100000000 "
#987
b100010101100111100000000 "
#989
b100010111100111100000000 "
#991
b100011001100111100000000 "
#993
b100011011100111100000000 "
#995
b100011101100111100000000 "
#997
b100011111100111100000000 "
#999
b100100001100111100000000 "
#1001
b100100011100111100000000 "
#1003
b100100101100111100000000 "
#1005
b100100111100111100000000 "
#1007
b100101001100111100000000 "
#1009
b100101011100111100000000 "
#1011
b100101101100111100000000 "
#1013
b100101111100111100000000 "
#1015
b100110001100111100000000 "
#1017
b100110011100111100000000 "
#1019
b100110101100111100000000 "
#1021
b100110111100111100000000 "
#1023
b100111001100111100000000 "
#1025
b100111011100111100000000 "
#1027
b100111101100111100000000 "
#1029
b100111111100111100000000 "
#1031
b101000001100111100000000 "
#1033
b101000011100111100000000 "
#1035
b101000101100111100000000 "
#1037
b101000111100111100000000 "
#1039
b101001001100111100000000 "
#1041
b101001011100111100000000 "
#1043
b101001101100111100000000 "
#1045
b101001111100111100000000 "
#1047
b101010001100111100000000 "
#1049
b101010011100111100000000 "
#1051
b101010101100111100000000 "
#1053
b101010111100111100000000 "
#1055
b101011001100111100000000 "
#1057
b101011011100111100000000 "
#1059
b101011101100111100000000 "
#1061
b101011111100111100000000 "
#1064
b101100001100111100000000 "
#1066
b101100011100111100000000 "
#1068
b101100101100111100000000 "
#1070
b101100111100111100000000 "
#1072
b101101001100111100000000 "
#1074
b101101011100111100000000 "
#1076
b101101101100111100000000 "
#1078
b101101111100111100000000 "
#1080
b101110001100111100000000 "
#1082
b101110011100111100000000 "
#1084
b101110101100111100000000 "
#1086
b101110111100111100000000 "
#1088
b101111001100111100000000 "
#1090
b101111011100111100000000 "
#1092
b101111101100111100000000 "
#1094
b101111111100111100000000 "
#1096
b110000001100111100000000 "
#1098
b110000011100111100000000 "
#1100
b110000101100111100000000 "
#1102
b110000111100111100000000 "
#1104
b110001001100111100000000 "
#1106
b110001011100111100000000 "
#1108
b110001101100111100000000 "
#1110
b110001111100111100000000 "
#1112
b110010001100111100000000 "
#1114
b110010011100111100000000 "
#1116
b110010101100111100000000 "
#1118
b110010111100111100000000 "
#1120
b110011001100111100000000 "
#1122
b110011011100111100000000 "
#1124
b110011101100111100000000 "
#1126
b110011111100111100000000 "
#1128
b110100001100111100000000 "
#1130
b110100011100111100000000 "
#1132
b110100101100111100000000 "
#1134
b110100111100111100000000 "
#1136
b110101001100111100000000 "
#1138
b110101011100111100000000 "
#1140
b110101101100111100000000 "
#1142
b110101111100111100000000 "
#1144
b110110001100111100000000 "
#1146
b110110011100111100000000 "
#1148
b110110101100111100000000 "
#1150
b110110111100111100000000 "
#1152
b110111001100111100000000 "
#1154
b110111011100111100000000 "
#1156
b110111101100111100000000 "
#1158
b110111111100111100000000 "
#1160
b111000001100111100000000 "
#1162
b111000011100111100000000 "
#1165
b111000101100111100000000 "
#1167
b111000111100111100000000 "
#1169
b111001001100111100000000 "
#1171
b111001011100111100000000 "
#1173
b111001101100111100000000 "
#1175
b111001111100111100000000 "
#1177
b111010001100111100000000 "
#1179
b111010011100111100000000 "
#1181
b111010101100111100000000 "
#1183
b111010111100111100000000 "
#1185
b111011001100111100000000 "
#1187
b111011011100111100000000 "
#1189
b111011101100111100000000 "
#1191
b111011111100111100000000 "
#1193
b111100001100111100000000 "
#1195
b111100011100111100000000 "
#1197
b111100101100111100000000 "
#1199
b111100111100111100000000 "
#1201
b111101001100111100000000 "
#1203
b111101011100111100000000 "
#1205
b111101101100111100000000 "
#1207
b111101111100111100000000 "
#1209
b111110001100111100000000 "
#1211
b111110011100111100000000 "
#1213
b111110101100111100000000 "
#1215
b111110111100111100000000 "
#1217
b111111001100111100000000 "
#1219
b111111011100111100000000 "
#1221
b111111101100111100000000 "
#1223
b111111111100111100000000 "
#1225
b1100111100000000 "
#1227
b11100111100000000 "
#1229
b101100111100000000 "
#1231
b111100111100000000 "
#1233
b1001100111100000000 "
#1235
b1011100111100000000 "
#1237
b1101100111100000000 "
#1239
b1111100111100000000 "
#1241
b10001100111100000000 "
#1243
b10011100111100000000 "
#1245
b10101100111100000000 "
#1247
b10111100111100000000 "
#1249
b11001100111100000000 "
#1251
b11011100111100000000 "
#1253
b11101100111100000000 "
#1255
b11111100111100000000 "
#1257
b100001100111100000000 "
#1259
b100011100111100000000 "
#1261
b100101100111100000000 "
#1264
b100111100111100000000 "
#1266
b101001100111100000000 "
#1268
b101011100111100000000 "
#1270
b101101100111100000000 "
#1272
b101111100111100000000 "
#1274
b110001100111100000000 "
#1276
b110011100111100000000 "
#1278
b110101100111100000000 "
#1280
b110111100111100000000 "
#1282
b111001100111100000000 "
#1284
b111011100111100000000 "
#1286
b111101100111100000000 "
#1288
b111111100111100000000 "
#1290
b1000001100111100000000 "
#1292
b1000011100111100000000 "
#1294
b1000101100111100000000 "
#1296
b1000111100111100000000 "
#1298
b1001001100111100000000 "
#1300
b1001011100111100000000 "
#1302
b1001101100111100000000 "
#1304
b1001111100111100000000 "
#1306
b1010001100111100000000 "
#1308
b1010011100111100000000 "
#1310
b1010101100111100000000 "
#1312
b1010111100111100000000 "
#1314
b1011001100111100000000 "
#1316
b1011011100111100000000 "
#1318
b1011101100111100000000 "
#1320
b1011111100111100000000 "
#1322
b1100001100111100000000 "
#1324
b1100011100111100000000 "
#1326
b1100101100111100000000 "
#1328
b1100111100111100000000 "
#1330
b1101001100111100000000 "
#1332
b1101011100111100000000 "
#1334
b1101101100111100000000 "
#1336
b1101111100111100000000 "
#1338
b1110001100111100000000 "
#1340
b1110011100111100000000 "
#1342
b1110101100111100000000 "
#1344
b1110111100111100000000 "
#1346
b1111001100111100000000 "
#1348
b1111011100111100000000 "
#1350
b1111101100111100000000 "
#1352
b1111111100111100000000 "
#1354
b10000001100111100000000 "
#1356
b10000011100111100000000 "
#1358
b10000101100111100000000 "
#1360
b10000111100111100000000 "
#1362
b10001001100111100000000 "
#1365
b10001011100111100000000 "
#1367
b10001101100111100000000 "
#1369
b10001111100111100000000 "
#1371
b10010001100111100000000 "
#1373
b10010011100111100000000 "
#1375
b10010101100111100000000 "
#1377
b10010111100111100000000 "
#1379
b10011001100111100000000 "
#1381
b10011011100111100000000 "
#1383
b10011101100111100000000 "
#1385
b10011111100111100000000 "
#1387
b10100001100111100000000 "
#1389
b10100011100111100000000 "
#1391
b10100101100111100000000 "
#1393
b10100111100111100000000 "
#1395
b10101001100111100000000 "
#1397
b10101011100111100000000 "
#1399
b10101101100111100000000 "
#1401
b10101111100111100000000 "
#1403
b10110001100111100000000 "
#1405
b10110011100111100000000 "
#1407
b10110101100111100000000 "
#1409
b10110111100111100000000 "
#1411
b10111001100111100000000 "
#1413
b10111011100111100000000 "
#1415
b10111101100111100000000 "
#1417
b10111111100111100000000 "
#1419
b11000001100111100000000 "
#1421
b11000011100111100000000 "
#1423
b11000101100111100000000 "
#1425
b11000111100111100000000 "
#1427
b11001001100111100000000 "
#1429
b11001011100111100000000 "
#1431
b11001101100111100000000 "
#1433
b11001111100111100000000 "
#1435
b11010001100111100000000 "
#1437
b11010011100111100000000 "
#1439
b11010101100111100000000 "
#1441
b11010111100111100000000 "
#1443
b11011001100111100000000 "
#1445
b11011011100111100000000 "
#1447
b11011101100111100000000 "
#1449
b11011111100111100000000 "
#1451
b11100001100111100000000 "
#1453
b11100011100111100000000 "
#1455
b11100101100111100000000 "
#1457
b11100111100111100000000 "
#1459
b11101001100111100000000 "
#1461
b11101011100111100000000 "
#1464
b11101101100111100000000 "
#1466
b11101111100111100000000 "
#1468
b11110001100111100000000 "
#1470
b11110011100111100000000 "
#1472
b11110101100111100000000 "
#1474
b11110111100111100000000 "
#1476
b11111001100111100000000 "
#1478
b11111011100111100000000 "
#1480
b11111101100111100000000 "
#1482
b11111111100111100000000 "
#1484
b100000001100111100000000 "
#1486
b100000011100111100000000 "
#1488
b100000101100111100000000 "
#1490
b100000111100111100000000 "
#1492
b100001001100111100000000 "
#1494
b100001011100111100000000 "
#1496
b100001101100111100000000 "
#1498
b100001111100111100000000 "
#1500
b100010001100111100000000 "
#1502
b100010011100111100000000 "
#1504
b100010101100111100000000 "
#1506
b100010111100111100000000 "
#1508
b100011001100111100000000 "
#1510
b100011011100111100000000 "
#1512
b100011101100111100000000 "
#1514
b100011111100111100000000 "
#1516
b100100001100111100000000 "
#1518
b100100011100111100000000 "
#1520
b100100101100111100000000 "
#1522
b100100111100111100000000 "
#1524
b100101001100111100000000 "
#1526
b100101011100111100000000 "
#1528
b100101101100111100000000 "
#1530
b100101111100111100000000 "
#1532
b100110001100111100000000 "
#1534
b100110011100111100000000 "
#1536
b100110101100111100000000 "
#1538
b100110111100111100000000 "
#1540
b100111001100111100000000 "
#1542
b100111011100111100000000 "
#1544
b100111101100111100000000 "
#1546
b100111111100111100000000 "
#1548
b101000001100111100000000 "
#1550
b101000011100111100000000 "
#1552
b101000101100111100000000 "
#1554
b101000111100111100000000 "
#1556
b101001001100111100000000 "
#1558
b101001011100111100000000 "
#1560
b101001101100111100000000 "
#1562
b101001111100111100000000 "
#1565
b101010001100111100000000 "
#1567
b101010011100111100000000 "
#1569
b101010101100111100000000 "
#1571
b101010111100111100000000 "
#1573
b101011001100111100000000 "
#1575
b101011011100111100000000 "
#1577
b101011101100111100000000 "
#1579
b101011111100111100000000 "
#1581
b101100001100111100000000 "
#1583
b101100011100111100000000 "
#1585
b101100101100111100000000 "
#1587
b101100111100111100000000 "
#1589
b101101001100111100000000 "
#1591
b101101011100111100000000 "
#1593
b101101101100111100000000 "
#1595
b101101111100111100000000 "
#1597
b101110001100111100000000 "
#1599
b101110011100111100000000 "
#1601
b101110101100111100000000 "
#1603
b101110111100111100000000 "
#1605
b101111001100111100000000 "
#1607
b101111011100111100000000 "
#1609
b101111101100111100000000 "
#1611
b101111111100111100000000 "
#1613
b110000001100111100000000 "
#1615
b110000011100111100000000 "
#1617
b110000101100111100000000 "
#1619
b110000111100111100000000 "
#1621
b110001001100111100000000 "
#1623
b110001011100111100000000 "
#1625
b110001101100111100000000 "
#1627
b110001111100111100000000 "
#1629
b110010001100111100000000 "
#1631
b110010011100111100000000 "
#1633
b110010101100111100000000 "
#1635
b110010111100111100000000 "
#1637
b110011001100111100000000 "
#1639
b110011011100111100000000 "
#1641
b110011101100111100000000 "
#1643
b110011111100111100000000 "
#1645
b110100001100111100000000 "
#1647
b110100011100111100000000 "
#1649
b110100101100111100000000 "
#1651
b110100111100111100000000 "
#1653
b110101001100111100000000 "
#1655
b110101011100111100000000 "
#1657
b110101101100111100000000 "
#1659
b110101111100111100000000 "
#1661
b110110001100111100000000 "
#1664
b110110011100111100000000 "
#1666
b110110101100111100000000 "
#1668
b110110111100111100000000 "
#1670
b110111001100111100000000 "
#1672
b110111011100111100000000 "
#1674
b110111101100111100000000 "
#1676
b110111111100111100000000 "
#1678
b111000001100111100000000 "
#1680
b111000011100111100000000 "
#1682
b111000101100111100000000 "
#1684
b111000111100111100000000 "
#1686
b111001001100111100000000 "
#1688
b111001011100111100000000 "
#1690
b111001101100111100000000 "
#1692
b111001111100111100000000 "
#1694
b111010001100111100000000 "
#1696
b111010011100111100000000 "
#1698
b111010101100111100000000 "
#1700
b111010111100111100000000 "
#1702
b111011001100111100000000 "
#1704
b111011011100111100000000 "
#1706
b111011101100111100000000 "
#1708
b111011111100111100000000 "
#1710
b111100001100111100000000 "
#1712
b111100011100111100000000 "
#1714
b111100101100111100000000 "
#1716
b111100111100111100000000 "
#1718
b111101001100111100000000 "
#1720
b111101011100111100000000 "
#1722
b111101101100111100000000 "
#1724
b111101111100111100000000 "
#1726
b111110001100111100000000 "
#1728
b111110011100111100000000 "
#1730
b111110101100111100000000 "
#1732
b111110111100111100000000 "
#1734
b111111001100111100000000 "
#1736
b111111011100111100000000 "
#1738
b111111101100111100000000 "
#1740
b111111111100111100000000 "
#1742
b1100111100000000 "
#1744
b11100111100000000 "
#1746
b101100111100000000 "
#1748
b111100111100000000 "
#1750
b1001100111100000000 "
#1752
b1011100111100000000 "
#1754
b1101100111100000000 "
#1756
b1111100111100000000 "
#1758
b10001100111100000000 "
#1760
b10011100111100000000 "
#1762
b10101100111100000000 "
#1765
b10111100111100000000 "
#1767
b11001100111100000000 "
#1769
b11011100111100000000 "
#1771
b11101100111100000000 "
#1773
b11111100111100000000 "
#1775
b100001100111100000000 "
#1777
b100011100111100000000 "
#1779
b100101100111100000000 "
#1781
b100111100111100000000 "
#1783
b101001100111100000000 "
#1785
b101011100111100000000 "
#1787
b101101100111100000000 "
#1789
b101111100111100000000 "
#1791
b110001100111100000000 "
#1793
b110011100111100000000 "
#1795
b110101100111100000000 "
#1797
b110111100111100000000 "
#1799
b111001100111100000000 "
#1801
b111011100111100000000 "
#1803
b111101100111100000000 "
#1805
b111111100111100000000 "
#1807
b1000001100111100000000 "
#1809
b1000011100111100000000 "
#1811
b1000101100111100000000 "
#1813
b1000111100111100000000 "
#1815
b1001001100111100000000 "
#1817
b1001011100111100000000 "
#1819
b1001101100111100000000 "
#1821
b1001111100111100000000 "
#1823
b1010001100111100000000 "
#1825
b1010011100111100000000 "
#1827
b1010101100111100000000 "
#1829
b1010111100111100000000 "
#1831
b1011001100111100000000 "
#1833
b1011011100111100000000 "
#1835
b1011101100111100000000 "
#1837
b1011111100111100000000 "
#1839
b1100001100111100000000 "
#1841
b1100011100111100000000 "
#1843
b1100101100111100000000 "
#1845
b1100111100111100000000 "
#1847
b1101001100111100000000 "
#1849
b1101011100111100000000 "
#1851
b1101101100111100000000 "
#1853
b1101111100111100000000 "
#1855
b1110001100111100000000 "
#1857
b1110011100111100000000 "
#1859
b1110101100111100000000 "
#1861
b1110111100111100000000 "
#1863
b1111001100111100000000 "
#1866
b1111011100111100000000 "
#1868
b1111101100111100000000 "
#1870
b1111111100111100000000 "
#1872
b10000001100111100000000 "
#1874
b10000011100111100000000 "
#1876
b10000101100111100000000 "
#1878
b10000111100111100000000 "
#1880
b10001001100111100000000 "
#1882
b10001011100111100000000 "
#1884
b10001101100111100000000 "
#1886
b10001111100111100000000 "
#1888
b10010001100111100000000 "
#1890
b10010011100111100000000 "
#1892
b10010101100111100000000 "
#1894
b10010111100111100000000 "
#1896
b10011001100111100000000 "
#1898
b10011011100111100000000 "
#1900
b10011101100111100000000 "
