vivado_proj/.Xil/Vivado-2891-TowerOfPower/hw_ila_data_1/zip_work/waveform.vcd
$date
        2019-Jan-30 14:23:09
$end
$version
        Vivado v2018.3 (64-bit)
$end
$timescale
        1ps
$end
$scope module dut $end
$var reg 24 " hdmi_in_i/v_vid_in_axi4s_0/m_axis_video_tdata [23:0] $end
$var reg 24 : hdmi_in_i/v_vid_in_axi4s_0/vid_data [23:0] $end
$var reg 1 R hdmi_in_i/v_vid_in_axi4s_0/m_axis_video_tlast $end
$var reg 1 S u_ila_0_m_axis_video_tready $end
$var reg 1 T hdmi_in_i/v_vid_in_axi4s_0/m_axis_video_tuser $end
$var reg 1 U u_ila_0_m_axis_video_tvalid $end
$var reg 1 V hdmi_in_i/v_vid_in_axi4s_0/vid_hsync $end
$var reg 1 W u_ila_0_vid_vsync $end
$var reg 1 X hdmi_in_i/v_vid_in_axi4s_0/vid_active_video $end
$var reg 1 Y _TRIGGER $end
$var reg 1 Z _WINDOW $end
$var reg 1 [ _GAP $end
$upscope $end
$enddefinitions $end
#0
$dumpvars
b10000000000000000 "
b10000000000000000 :
0R
1S
0T
0U
0V
0W
1X
0Y
1Z
0[
$end
#1
1U
#2
0U
#3
1U
#4
0U
#5
1U
#6
0U
#7
1U
#8
0U
#9
1U
#10
0U
#11
1U
#12
0U
#14
1U
#15
0U
#16
1U
#17
0U
#18
1U
#19
0U
#20
1U
#21
0U
#22
1U
#23
0U
#24
1U
#25
0U
#26
1U
#27
0U
#28
1U
#29
0U
#30
1U
#31
0U
#32
1U
#33
0U
#34
1U
#35
0U
#36
1U
#37
0U
#38
1U
#39
0U
#40
1U
#41
0U
#42
1U
#43
0U
#44
1U
#45
0U
#46
1U
#47
0U
#48
1U
#49
0U
#50
1U
#51
0U
#52
1U
#53
0U
#54
1U
#55
0U
#56
1U
#57
0U
#58
1U
#59
0U
#60
1U
#61
0U
#62
1U
#63
0U
#64
1U
#65
0U
#66
1U
#67
0U
#68
1U
#69
0U
#70
1U
#71
0U
#72
1U
#73
0U
#74
1U
#75
0U
#76
1U
#77
0U
#78
1U
#79
0U
#80
1U
#81
0U
#82
1U
#83
0U
#84
1U
#85
0U
#86
1U
#87
0U
#88
1U
#89
0U
#90
1U
#91
0U
#92
1U
#93
0U
#94
1U
#95
0U
#96
1U
#97
0U
#98
1U
#99
0U
#100
1U
#101
0U
#102
1U
#103
0U
#104
1U
#105
0U
#106
1U
#107
0U
#108
1U
#109
0U
#110
1U
#111
0U
#113
1U
#114
0U
#115
1U
#116
0U
#117
1U
#118
0U
#119
1U
#120
0U
#121
1U
#122
0U
#123
1U
#124
0U
#125
1U
#126
0U
#127
1U
#128
0U
#129
1U
#130
0U
#131
1U
#132
0U
#133
1U
#134
0U
#135
1U
#136
0U
#137
1U
#138
0U
#139
1U
#140
0U
#141
1U
#142
0U
#143
1U
#144
0U
#145
1U
#146
0U
#147
1U
#148
0U
#149
1U
#150
0U
#151
1U
#152
0U
#153
1U
#154
0U
#155
1U
#156
0U
#157
1U
#158
0U
#159
1U
#160
0U
#161
1U
#162
0U
#163
1U
#164
0U
#165
1U
#166
0U
#167
1U
#168
0U
#169
1U
#170
0U
#171
1U
#172
0U
#173
1U
#174
0U
#175
1U
#176
0U
#177
1U
#178
0U
#179
1U
#180
0U
#181
1U
#182
0U
#183
1U
#184
0U
#185
1U
#186
0U
#187
1U
#188
0U
#189
1U
#190
0U
#191
1U
#192
0U
#193
1U
#194
0U
#195
1U
#196
0U
#197
1U
#198
0U
#199
1U
#200
0U
#201
1U
#202
0U
#203
1U
#204
0U
#205
1U
#206
0U
#207
1U
#208
0U
#209
1U
#210
0U
#211
1U
#212
0U
#214
1U
#215
0U
#216
1U
#217
0U
#218
1U
#219
0U
#220
1U
#221
0U
#222
1U
#223
0U
#224
1U
#225
0U
#226
1U
#227
0U
#228
1U
#229
0U
#230
1U
#231
0U
#232
1U
#233
0U
#234
1U
#235
0U
#236
1U
#237
0U
#238
1U
#239
0U
#240
1U
#241
0U
#242
1U
#243
0U
#244
1U
#245
0U
#246
1U
#247
0U
#248
1U
#249
0U
#250
1U
#251
0U
#252
1U
#253
0U
#254
1U
#255
0U
#256
1U
#257
0U
#258
1U
#259
0U
#260
1U
#261
0U
#262
1U
#263
0U
#264
1U
#265
0U
#266
1U
#267
0U
#268
1U
#269
0U
#270
1U
#271
0U
#272
1U
#273
0U
#274
1U
#275
0U
#276
1U
#277
0U
#278
1U
#279
0U
#280
1U
#281
0U
#282
1U
#283
0U
#284
1U
#285
0U
#286
1U
#287
0U
#288
1U
#289
0U
#290
1U
#291
0U
#292
1U
#293
0U
#294
1U
#295
0U
#296
1U
#297
0U
#298
1U
#299
0U
#300
1U
#301
0U
#302
1U
#303
0U
#304
1U
#305
0U
#306
1U
#307
0U
#308
1U
#309
0U
#310
1U
#311
0U
#313
1U
#314
0U
#315
1U
#316
0U
#317
1U
#318
0U
#319
1U
#320
0U
#321
1U
#322
0U
#323
1U
#324
0U
#325
1U
#326
0U
#327
1U
#328
0U
#329
1U
#330
0U
#331
1U
#332
0U
#333
1U
#334
0U
#335
1U
#336
0U
#337
1U
#338
0U
#339
1U
#340
0U
#341
1U
#342
0U
#343
1U
#344
0U
#345
1U
#346
0U
#347
1U
#348
0U
#349
1U
#350
0U
#351
1U
#352
0U
#353
1U
#354
0U
#355
1U
#356
0U
#357
1U
#358
0U
#359
1U
#360
0U
#361
1U
#362
0U
#363
1U
#364
0U
#365
1U
#366
0U
#367
1U
#368
0U
#369
1U
#370
0U
#371
1U
#372
0U
#373
1U
#374
0U
#375
1U
#376
0U
#377
1U
#378
0U
#379
1U
#380
0U
#381
1U
#382
0U
#383
1U
#384
0U
#385
1U
#386
0U
#387
1U
#388
0U
#389
1U
#390
0U
#391
1U
#392
0U
#393
1U
#394
0U
#395
1U
#396
0U
#397
1U
#398
0U
#399
1U
#400
0U
#401
1U
#402
0U
#403
1U
#404
0U
#405
1U
#406
0U
#407
1U
#408
0U
#409
1U
#410
0U
#411
1U
#412
0U
#414
1U
#415
0U
#416
1U
#417
0U
#418
1U
#419
0U
#420
1U
#421
0U
#422
1U
#423
0U
#424
1U
#425
0U
#426
1U
#427
0U
#428
1U
#429
0U
#430
1U
#431
0U
#432
1U
#433
0U
#434
1U
#435
0U
#436
1U
#437
0U
#438
1U
#439
0U
#440
1U
#441
0U
#442
1U
#443
0U
#444
1U
#445
0U
#446
1U
#447
0U
#448
1U
#449
0U
#450
1U
#451
0U
#452
1U
#453
0U
#454
1U
#455
0U
#456
1U
#457
0U
#458
1U
#459
0U
#460
1U
#461
0U
#462
1U
#463
0U
#464
1U
#465
0U
#466
1U
#467
0U
#468
1U
#469
0U
#470
1U
#471
0U
#472
1U
#473
0U
#474
1U
#475
0U
#476
1U
#477
0U
#478
1U
#479
0U
#480
1U
#481
0U
#482
1U
#483
0U
#484
1U
#485
0U
#486
1U
#487
0U
#488
1U
#489
0U
#490
1U
#491
0U
#492
1U
#493
0U
#494
1U
#495
0U
#496
1U
#497
0U
#498
1U
#499
0U
#500
1U
#501
0U
#502
1U
#503
0U
#504
1U
#505
0U
#506
1U
#507
0U
#508
1U
#509
0U
#510
1U
#511
0U
#512
1U
#513
0U
#515
1U
#516
0U
#517
1U
#518
0U
#519
1U
#520
0U
#521
1U
#522
0U
#523
1U
#524
0U
#525
1U
#526
0U
#527
1U
#528
0U
#529
1U
#530
0U
#531
1U
#532
0U
#533
1U
#534
0U
#535
1U
#536
0U
#537
1U
#538
0U
#539
1U
#540
0U
#541
1U
#542
0U
#543
1U
#544
0U
#545
1U
#546
0U
#547
1U
#548
0U
#549
1U
#550
0U
#551
1U
#552
0U
#553
1U
#554
0U
#555
1U
#556
0U
#557
1U
#558
0U
#559
1U
#560
0U
#561
1U
#562
0U
#563
1U
#564
0U
#565
1U
#566
0U
#567
1U
#568
0U
#569
1U
#570
0U
#571
1U
#572
0U
#573
1U
#574
0U
#575
1U
#576
0U
#577
1U
#578
0U
#579
1U
#580
0U
#581
1U
#582
0U
#583
1U
#584
0U
#585
1U
#586
0U
#587
1U
#588
0U
#589
1U
#590
0U
#591
1U
#592
0U
#593
1U
#594
0U
#595
1U
#596
0U
#597
1U
#598
0U
#599
1U
#600
0U
#601
1U
#602
0U
#603
1U
#604
0U
#605
1U
#606
0U
#607
1U
#608
0U
#609
1U
#610
0U
#611
1U
#612
0U
#614
1U
#615
0U
#616
1U
#617
0U
#618
1U
#619
0U
#620
1U
#621
0U
#622
1U
#623
0U
#624
1U
#625
0U
#626
1U
#627
0U
#628
1U
#629
0U
#630
1U
#631
0U
#632
1U
#633
0U
#634
1U
#635
0U
#636
1U
#637
0U
#638
1U
#639
0U
#640
1U
#641
0U
#642
1U
#643
0U
#644
1U
#645
0U
#646
1U
#647
0U
#648
1U
#649
0U
#650
1U
#651
0U
#652
1U
#653
0U
#654
1U
#655
0U
#656
1U
#657
0U
#658
1U
#659
0U
#660
1U
#661
0U
#662
1U
#663
0U
#664
1U
#665
0U
#666
1U
#667
0U
#668
1U
#669
0U
#670
1U
#671
0U
#672
1U
#673
0U
#674
1U
#675
0U
#676
1U
#677
0U
#678
1U
#679
0U
#680
1U
#681
0U
#682
1U
#683
0U
#684
1U
#685
0U
#686
1U
#687
0U
#688
1U
#689
0U
#690
1U
#691
0U
#692
1U
#693
0U
#694
1U
#695
0U
#696
1U
#697
0U
#698
1U
#699
0U
#700
1U
#701
0U
#702
1U
#703
0U
#704
1U
#705
0U
#706
1U
#707
0U
#708
1U
#709
0U
#710
1U
#711
0U
#712
1U
#713
0U
#715
1U
#716
0U
#717
1U
#718
0U
#719
1U
#720
0U
#721
1U
#722
0U
#723
1U
#724
0U
#725
1U
#726
0U
#727
1U
#728
0U
#729
1U
#730
0U
#731
1U
#732
0U
#733
1U
#734
0U
#735
1U
#736
0U
#737
1U
#738
0U
#739
1U
#740
0U
#741
1U
#742
0U
#743
1U
#744
0U
#745
1U
#746
0U
#747
1U
#748
0U
#749
1U
#750
0U
#751
1U
#752
0U
#753
1U
#754
0U
#755
1U
#756
0U
#757
1U
#758
0U
#759
1U
#760
0U
#761
1U
#762
0U
#763
1U
#764
0U
#765
1U
#766
0U
#767
1U
#768
0U
#769
1U
#770
0U
#771
1U
#772
0U
#773
1U
#774
0U
#775
1U
#776
0U
#777
1U
#778
0U
#779
1U
#780
0U
#781
1U
#782
0U
#783
1U
#784
0U
#785
1U
#786
0U
#787
1U
#788
0U
#789
1U
#790
0U
#791
1U
#792
0U
#793
1U
#794
0U
#795
1U
#796
0U
#797
1U
#798
0U
#799
1U
#800
0U
#801
1U
#802
0U
#803
1U
#804
0U
#805
1U
#806
0U
#807
1U
#808
0U
#809
1U
#810
0U
#811
1U
#812
0U
#814
1U
#815
0U
#816
1U
#817
0U
#818
1U
#819
0U
#820
1U
#821
0U
#822
1U
#823
0U
#824
1U
#825
0U
#826
1U
#827
0U
#828
1U
#829
0U
#830
1U
#831
0U
#832
1U
#833
0U
#834
1U
#835
0U
#836
1U
#837
0U
#838
1U
#839
0U
#840
1U
#841
0U
#842
1U
#843
0U
#844
1U
#845
0U
#846
1U
#847
0U
#848
1U
#849
0U
#850
1U
#851
0U
#852
1U
#853
0U
#854
1U
#855
0U
#856
1U
#857
0U
#858
1U
#859
0U
#860
1U
#861
0U
#862
1U
#863
0U
#864
1U
#865
0U
#866
1U
#867
0U
#868
1U
#869
0U
#870
1U
#871
0U
#872
1U
#873
0U
#874
1U
#875
0U
#876
1U
#877
0U
#878
1U
#879
0U
#880
1U
#881
0U
#882
1U
#883
0U
#884
1U
#885
0U
#886
1U
#887
0U
#888
1U
#889
0U
#890
1U
#891
0U
#892
1U
#893
0U
#894
1U
#895
0U
#896
1U
#897
0U
#898
1U
#899
0U
#900
1U
#901
0U
#902
1U
#903
0U
#904
1U
#905
0U
#906
1U
#907
0U
#908
1U
#909
0U
#910
1U
#911
0U
#912
1U
#913
0U
#915
1U
#916
0U
#917
1U
#918
0U
#919
1U
#920
0U
#921
1U
#922
0U
#923
1U
#924
0U
#925
1U
#926
0U
#927
1U
#928
0U
#929
1U
#930
0U
#931
1U
#932
0U
#933
1U
#934
0U
#935
1U
#936
0U
#937
1U
#938
0U
#939
1U
#940
0U
#941
1U
#942
0U
#943
1U
#944
0U
#945
1U
#946
0U
#947
1U
#948
0U
#949
1U
#950
0U
#951
1U
#952
0U
#953
1U
#954
0U
#955
1U
#956
0U
#957
1U
#958
0U
#959
1U
#960
0U
#961
1U
#962
0U
#963
1U
#964
0U
#965
1U
#966
0U
#967
1U
#968
0U
#969
1U
#970
0U
#971
1U
#972
0U
#973
1U
#974
0U
#975
1U
#976
0U
#977
1U
#978
0U
#979
1U
#980
0U
#981
1U
#982
0U
#983
1U
#984
0U
#985
1U
#986
0U
#987
1U
#988
0U
#989
1U
#990
0U
#991
1U
#992
0U
#993
1U
#994
0U
#995
1U
#996
0U
#997
1U
#998
0U
#999
1U
#1000
0U
#1001
1U
#1002
0U
#1003
1U
#1004
0U
#1005
1U
#1006
0U
#1007
1U
#1008
0U
#1009
1U
#1010
0U
#1011
1U
#1012
0U
#1014
1U
#1015
0U
#1016
1U
#1017
0U
#1018
1U
#1019
0U
#1020
1U
#1021
0U
#1022
1U
#1023
0U
#1024
1U
#1025
0U
#1026
1U
#1027
0U
#1028
1U
#1029
0U
#1030
1U
#1031
0U
#1032
1U
#1033
0U
#1034
1U
#1035
0U
#1036
1U
#1037
0U
#1038
1U
#1039
0U
#1040
1U
#1041
0U
#1042
1U
#1043
0U
#1044
1U
#1045
0U
#1046
1U
#1047
0U
#1048
1U
#1049
0U
#1050
1U
#1051
0U
#1052
1U
#1053
0U
#1054
1U
#1055
0U
#1056
1U
#1057
0U
#1058
1U
#1059
0U
#1060
1U
#1061
0U
#1062
1U
#1063
0U
#1064
1U
#1065
0U
#1066
1U
#1067
0U
#1068
1U
#1069
0U
#1070
1U
#1071
0U
#1072
1U
#1073
0U
#1074
1U
#1075
0U
#1076
1U
#1077
0U
#1078
1U
#1079
0U
#1080
1U
#1081
0U
#1082
1U
#1083
0U
#1084
1U
#1085
0U
#1086
1U
#1087
0U
#1088
1U
#1089
0U
#1090
1U
#1091
0U
#1092
1U
#1093
0U
#1094
1U
#1095
0U
#1096
1U
#1097
0U
#1098
1U
#1099
0U
#1100
1U
#1101
0U
#1102
1U
#1103
0U
#1104
1U
#1105
0U
#1106
1U
#1107
0U
#1108
1U
#1109
0U
#1110
1U
#1111
0U
#1112
1U
#1113
0U
#1115
1U
#1116
0U
#1117
1U
#1118
0U
#1119
1U
#1120
0U
#1121
1U
#1122
0U
#1123
1U
#1124
0U
#1125
1U
#1126
0U
#1127
1U
#1128
0U
#1129
1U
#1130
0U
#1131
1U
#1132
0U
#1133
1U
#1134
0U
#1135
1U
#1136
0U
#1137
1U
#1138
0U
#1139
1U
#1140
0U
#1141
1U
#1142
0U
#1143
1U
#1144
0U
#1145
1U
#1146
0U
#1147
1U
#1148
0U
#1149
1U
#1150
0U
#1151
1U
#1152
0U
#1153
1U
#1154
0U
#1155
1U
#1156
0U
#1157
1U
#1158
0U
#1159
1U
#1160
0U
#1161
1U
#1162
0U
#1163
1U
#1164
0U
#1165
1U
#1166
0U
#1167
1U
#1168
0U
#1169
1U
#1170
0U
#1171
1U
#1172
0U
#1173
1U
#1174
0U
#1175
1U
#1176
0U
#1177
1U
#1178
0U
#1179
1U
#1180
0U
#1181
1U
#1182
0U
#1183
1U
#1184
0U
#1185
1U
#1186
0U
#1187
1U
#1188
0U
#1189
1U
#1190
0U
#1191
1U
#1192
0U
#1193
1U
#1194
0U
#1195
1U
#1196
0U
#1197
1U
#1198
0U
#1199
1U
#1200
0U
#1201
1U
#1202
0U
#1203
1U
#1204
0U
#1205
1U
#1206
0U
#1207
1U
#1208
0U
#1209
1U
#1210
0U
#1211
1U
#1212
0U
#1214
1U
#1215
0U
#1216
1U
#1217
0U
#1218
1U
#1219
0U
#1220
1U
#1221
0U
#1222
1U
#1223
0U
#1224
1U
#1225
0U
#1226
1U
#1227
0U
#1228
1U
#1229
0U
#1230
1U
#1231
0U
#1232
1U
#1233
0U
#1234
1U
#1235
0U
#1236
1U
#1237
0U
#1238
1U
#1239
0U
#1240
1U
#1241
0U
#1242
1U
#1243
0U
#1244
1U
#1245
0U
#1246
1U
#1247
0U
#1248
1U
#1249
0U
#1250
1U
#1251
0U
#1252
1U
#1253
0U
#1254
1U
#1255
0U
#1256
1U
#1257
0U
#1258
1U
#1259
0U
#1260
1U
#1261
0U
#1262
1U
#1263
0U
#1264
1U
#1265
0U
#1266
1U
#1267
0U
#1268
1U
#1269
0U
#1270
1U
#1271
0U
#1272
1U
#1273
0U
#1274
1U
#1275
0U
#1276
1U
#1277
0U
#1278
1U
#1279
0U
#1280
1U
#1281
0U
#1282
1U
#1283
0U
#1284
1U
#1285
0U
#1286
1U
#1287
0U
#1288
1U
#1289
0U
#1290
1U
#1291
0U
#1292
1U
#1293
0U
#1294
1U
#1295
0U
#1296
1U
#1297
0U
#1298
1U
#1299
0U
#1300
1U
#1301
0U
#1302
1U
#1303
0U
#1304
1U
#1305
0U
#1306
1U
#1307
0U
#1308
1U
#1309
0U
#1310
1U
#1311
0U
#1312
1U
#1313
0U
#1315
1U
#1316
0U
#1317
1U
#1318
0U
#1319
1U
#1320
0U
#1321
1U
#1322
0U
#1323
1U
#1324
0U
#1325
1U
#1326
0U
#1327
1U
#1328
0U
#1329
1U
#1330
0U
#1331
1U
#1332
0U
#1333
1U
#1334
0U
#1335
1U
#1336
0U
#1337
1U
#1338
0U
#1339
1U
#1340
0U
#1341
1U
#1342
0U
#1343
1U
#1344
0U
#1345
1U
#1346
0U
#1347
1U
#1348
0U
#1349
1U
#1350
0U
#1351
1U
#1352
0U
#1353
1U
#1354
0U
#1355
1U
#1356
0U
#1357
1U
#1358
0U
#1359
1U
#1360
0U
#1361
1U
#1362
0U
#1363
1U
#1364
0U
#1365
1U
#1366
0U
#1367
1U
#1368
0U
#1369
1U
#1370
0U
#1371
1U
#1372
0U
#1373
1U
#1374
0U
#1375
1U
#1376
0U
#1377
1U
#1378
0U
#1379
1U
#1380
0U
#1381
1U
#1382
0U
#1383
1U
#1384
0U
#1385
1U
#1386
0U
#1387
1U
#1388
0U
#1389
1U
#1390
0U
#1391
1U
#1392
0U
#1393
1U
#1394
0U
#1395
1U
#1396
0U
#1397
1U
#1398
0U
#1399
1U
#1400
0U
#1401
1U
#1402
0U
#1403
1U
#1404
0U
#1405
1U
#1406
0U
#1407
1U
#1408
0U
#1409
1U
#1410
0U
#1411
1U
#1412
0U
#1413
1U
#1414
0U
#1416
1U
#1417
0U
#1418
1U
#1419
0U
#1420
1U
#1421
0U
#1422
1U
#1423
0U
#1424
1U
#1425
0U
#1426
1U
#1427
0U
#1428
1U
#1429
0U
#1430
1U
#1431
0U
#1432
1U
#1433
0U
#1434
1U
#1435
0U
#1436
1U
#1437
0U
#1438
1U
#1439
0U
#1440
1U
#1441
0U
#1442
1U
#1443
0U
#1444
1U
#1445
0U
#1446
1U
#1447
0U
#1448
1U
#1449
0U
#1450
1U
#1451
0U
#1452
1U
#1453
0U
#1454
1U
#1455
0U
#1456
1U
#1457
0U
#1458
1U
#1459
0U
#1460
1U
#1461
0U
#1462
1U
#1463
0U
#1464
1U
#1465
0U
#1466
1U
#1467
0U
#1468
1U
#1469
0U
#1470
1U
#1471
0U
#1472
1U
#1473
0U
#1474
1U
#1475
0U
#1476
1U
#1477
0U
#1478
1U
#1479
0U
#1480
1U
#1481
0U
#1482
1U
#1483
0U
#1484
1U
#1485
0U
#1486
1U
#1487
0U
#1488
1U
#1489
0U
#1490
1U
#1491
0U
#1492
1U
#1493
0U
#1494
1U
#1495
0U
#1496
1U
#1497
0U
#1498
1U
#1499
0U
#1500
1U
#1501
0U
#1502
1U
#1503
0U
#1504
1U
#1505
0U
#1506
1U
#1507
0U
#1508
1U
#1509
0U
#1510
1U
#1511
0U
#1512
1U
#1513
0U
#1514
1U
#1515
0U
#1517
1U
#1518
0U
#1519
1U
#1520
0U
#1521
1U
#1522
0U
#1523
1U
#1524
0U
#1525
1U
#1526
0U
#1527
1U
#1528
0U
#1529
1U
#1530
0U
#1531
1U
#1532
0U
#1533
1U
#1534
0U
#1535
1U
#1536
0U
#1537
1U
#1538
0U
#1539
1U
#1540
0U
#1541
1U
#1542
0U
#1543
1U
#1544
0U
#1545
1U
#1546
0U
#1547
1U
#1548
0U
#1549
1U
#1550
0U
#1551
1U
#1552
0U
#1553
1U
#1554
0U
#1555
1U
#1556
0U
#1557
1U
#1558
0U
#1559
1U
#1560
0U
#1561
1U
#1562
0U
#1563
1U
#1564
0U
#1565
1U
#1566
0U
#1567
1U
#1568
0U
#1569
1U
#1570
0U
#1571
1U
#1572
0U
#1573
1U
#1574
0U
#1575
1U
#1576
0U
#1577
1U
#1578
0U
#1579
1U
#1580
0U
#1581
1U
#1582
0U
#1583
1U
#1584
0U
#1585
1U
#1586
0U
#1587
1U
#1588
0U
#1589
1U
#1590
0U
#1591
1U
#1592
0U
#1593
1U
#1594
0U
#1595
1U
#1596
0U
#1597
1U
#1598
0U
#1599
1U
#1600
0U
#1601
1U
#1602
0U
#1603
1U
#1604
0U
#1605
1U
#1606
0U
#1607
1U
#1608
0U
#1609
1U
#1610
0U
#1611
1U
#1612
0U
#1613
1U
#1614
0U
#1616
1U
#1617
0U
#1618
1U
#1619
0U
#1620
1U
#1621
0U
#1622
1U
#1623
0U
#1624
1U
#1625
0U
#1626
1U
#1627
0U
#1628
1U
#1629
0U
#1630
1U
#1631
0U
#1632
1U
#1633
0U
#1634
1U
#1635
0U
#1636
1U
#1637
0U
#1638
1U
#1639
0U
#1640
1U
#1641
0U
#1642
1U
#1643
0U
#1644
1U
#1645
0U
#1646
1U
#1647
0U
#1648
1U
#1649
0U
#1650
1U
#1651
0U
#1652
1U
#1653
0U
#1654
1U
#1655
0U
#1656
1U
#1657
0U
#1658
1U
#1659
0U
#1660
1U
#1661
0U
#1662
1U
#1663
0U
#1664
1U
#1665
0U
#1666
1U
#1667
0U
#1668
1U
#1669
0U
#1675
b0 :
1V
0X
#1678
1U
#1679
0U
#1680
1U
#1681
0U
#1682
1R
1U
#1683
0U
#1695
b10110110101101101011011 :
1X
#1697
b101010110101101101011011 :
#1704
b10110110101101101011011 "
0R
1U
#1705
0U
#1706
b101010110101101101011011 "
1U
#1707
0U
#1708
1U
#1709
0U
#1710
1U
#1711
0U
#1712
1U
#1713
0U
#1715
1U
#1716
0U
#1717
1U
#1718
0U
#1719
1U
#1720
0U
#1721
1U
#1722
0U
#1723
1U
#1724
0U
#1725
1U
#1726
0U
#1727
1U
#1728
0U
#1729
1U
#1730
0U
#1731
1U
#1732
0U
#1733
1U
#1734
0U
#1735
1U
#1736
0U
#1737
1U
#1738
0U
#1739
1U
#1740
0U
#1741
1U
#1742
0U
#1743
1U
#1744
0U
#1745
1U
#1746
0U
#1747
1U
#1748
0U
#1749
1U
#1750
0U
#1751
1U
#1752
0U
#1753
1U
#1754
0U
#1755
1U
#1756
0U
#1757
1U
#1758
0U
#1759
1U
#1760
0U
#1761
1U
#1762
0U
#1763
1U
#1764
0U
#1765
1U
#1766
0U
#1767
1U
#1768
0U
#1769
1U
#1770
0U
#1771
1U
#1772
0U
#1773
1U
#1774
0U
#1775
1U
#1776
0U
#1777
1U
#1778
0U
#1779
1U
#1780
0U
#1781
1U
#1782
0U
#1783
1U
#1784
0U
#1785
1U
#1786
0U
#1787
1U
#1788
0U
#1789
1U
#1790
0U
#1791
1U
#1792
0U
#1793
1U
#1794
0U
#1795
1U
#1796
0U
#1797
1U
#1798
0U
#1799
1U
#1800
0U
#1801
1U
#1802
0U
#1803
1U
#1804
0U
#1805
1U
#1806
0U
#1807
1U
#1808
0U
#1809
1U
#1810
0U
#1811
1U
#1812
0U
#1813
1U
#1814
0U
#1815
1U
#1816
0U
#1818
1U
#1819
0U
#1820
1U
#1821
0U
#1822
1U
#1823
0U
#1824
1U
#1825
0U
#1826
1U
#1827
0U
#1828
1U
#1829
0U
#1830
1U
#1831
0U
#1832
1U
#1833
0U
#1834
1U
#1835
0U
#1836
1U
#1837
0U
#1838
1U
#1839
0U
#1840
1U
#1841
0U
#1842
1U
#1843
0U
#1844
1U
#1845
0U
#1846
1U
#1847
0U
#1848
1U
#1849
0U
#1850
1U
#1851
0U
#1852
1U
#1853
0U
#1854
1U
#1855
0U
#1856
1U
#1857
0U
#1858
1U
#1859
0U
#1860
1U
#1861
0U
#1862
1U
#1863
0U
#1864
1U
#1865
0U
#1866
1U
#1867
0U
#1868
1U
#1869
0U
#1870
1U
#1871
0U
#1872
1U
#1873
0U
#1874
1U
#1875
0U
#1876
1U
#1877
0U
#1878
1U
#1879
0U
#1880
1U
#1881
0U
#1882
1U
#1883
0U
#1884
1U
#1885
0U
#1886
1U
#1887
0U
#1888
1U
#1889
b10010110101101101011011 :
0U
#1890
1U
#1891
0U
#1892
1U
#1893
0U
#1894
1U
#1895
0U
#1896
1U
#1897
0U
#1898
b10010110101101101011011 "
1U
#1899
0U
#1900
1U
#1901
0U
#1902
1U
#1903
0U
#1904
1U
#1905
0U
#1906
1U
#1907
0U
#1908
1U
#1909
0U
#1910
1U
#1911
0U
#1912
1U
#1913
0U
#1914
1U
#1915
0U
#1917
1U
#1918
0U
#1919
1U
#1920
0U
#1921
1U
#1922
0U
#1923
1U
#1924
0U
#1925
1U
#1926
0U
#1927
1U
#1928
0U
#1929
1U
#1930
0U
#1931
1U
#1932
0U
#1933
1U
#1934
0U
#1935
1U
#1936
0U
#1937
1U
#1938
0U
#1939
1U
#1940
0U
#1941
1U
#1942
0U
#1943
1U
#1944
0U
#1945
1U
#1946
0U
#1947
1U
#1948
0U
#1949
1U
#1950
0U
#1951
1U
#1952
0U
#1953
1U
#1954
0U
#1955
1U
#1956
0U
#1957
1U
#1958
0U
#1959
1U
#1960
0U
#1961
1U
#1962
0U
#1963
1U
#1964
0U
#1965
1U
#1966
0U
#1967
1U
#1968
0U
#1969
1U
#1970
b101010110101101101011011 :
0U
#1971
1U
#1972
0U
#1973
1U
#1974
0U
#1975
1U
#1976
0U
#1977
1U
#1978
0U
#1979
b101010110101101101011011 "
1U
#1980
0U
#1981
1U
#1982
0U
#1983
1U
#1984
0U
#1985
1U
#1986
0U
#1987
1U
#1988
0U
#1989
1U
#1990
0U
#1991
1U
#1992
0U
#1993
1U
#1994
0U
#1995
1U
#1996
0U
#1997
1U
#1998
0U
#1999
1U
#2000
0U
#2001
1U
#2002
0U
#2003
1U
#2004
0U
#2005
1U
#2006
0U
#2007
1U
#2008
0U
#2009
1U
#2010
0U
#2011
1U
#2012
0U
#2013
1U
#2014
0U
#2015
1U
#2016
0U
#2018
1U
#2019
0U
#2020
1U
#2021
0U
#2022
1U
#2023
0U
#2024
1U
#2025
0U
#2026
1U
#2027
0U
#2028
1U
#2029
0U
#2030
1U
#2031
0U
#2032
1U
#2033
0U
#2034
1U
#2035
0U
#2036
1U
#2037
0U
#2038
1U
#2039
0U
#2040
1U
#2041
0U
#2042
1U
#2043
0U
#2044
1U
#2045
0U
#2046
1U
#2047
0U
#2048
1U
#2049
0U
#2050
1U
#2051
0U
#2052
1U
#2053
0U
#2054
1U
#2055
0U
#2056
1U
#2057
0U
#2058
1U
#2059
0U
#2060
1U
#2061
0U
#2062
1U
#2063
0U
#2064
1U
#2065
0U
#2066
1U
#2067
0U
#2068
1U
#2069
0U
#2070
1U
#2071
0U
#2072
1U
#2073
0U
#2074
1U
#2075
0U
#2076
1U
#2077
0U
#2078
1U
#2079
0U
#2080
1U
#2081
0U
#2082
1U
#2083
0U
#2084
1U
#2085
0U
#2086
1U
#2087
0U
#2088
1U
#2089
0U
#2090
1U
#2091
0U
#2092
1U
#2093
0U
#2094
1U
#2095
0U
#2096
1U
#2097
0U
#2098
1U
#2099
0U
#2100
1U
#2101
0U
#2102
1U
#2103
0U
#2104
1U
#2105
0U
#2106
1U
#2107
0U
#2108
1U
#2109
0U
#2110
1U
#2111
0U
#2112
1U
#2113
0U
#2114
1U
#2115
0U
#2117
1U
#2118
0U
#2119
1U
#2120
0U
#2121
1U
#2122
0U
#2123
1U
#2124
0U
#2125
1U
#2126
0U
#2127
1U
#2128
0U
#2129
1U
#2130
0U
#2131
1U
#2132
0U
#2133
1U
#2134
0U
#2135
1U
#2136
0U
#2137
1U
#2138
0U
#2139
1U
#2140
0U
#2141
1U
#2142
0U
#2143
1U
#2144
0U
#2145
1U
#2146
0U
#2147
1U
#2148
0U
#2149
1U
#2150
0U
#2151
1U
#2152
0U
#2153
1U
#2154
0U
#2155
1U
#2156
0U
#2157
1U
#2158
0U
#2159
1U
#2160
0U
#2161
1U
#2162
0U
#2163
1U
#2164
0U
#2165
1U
#2166
0U
#2167
1U
#2168
0U
#2169
1U
#2170
0U
#2171
1U
#2172
0U
#2173
1U
#2174
0U
#2175
1U
#2176
0U
#2177
1U
#2178
0U
#2179
1U
#2180
0U
#2181
1U
#2182
0U
#2183
1U
#2184
0U
#2185
1U
#2186
0U
#2187
1U
#2188
0U
#2189
1U
#2190
0U
#2191
1U
#2192
0U
#2193
1U
#2194
0U
#2195
1U
#2196
0U
#2197
1U
#2198
0U
#2199
1U
#2200
0U
#2201
1U
#2202
0U
#2203
1U
#2204
0U
#2205
1U
#2206
0U
#2207
1U
#2208
0U
#2209
1U
#2210
0U
#2211
1U
#2212
0U
#2213
1U
#2214
0U
#2215
1U
#2216
0U
#2218
1U
#2219
0U
#2220
1U
#2221
0U
#2222
1U
#2223
0U
#2224
1U
#2225
0U
#2226
1U
#2227
0U
#2228
1U
#2229
0U
#2230
1U
#2231
0U
#2232
1U
