vivado_proj/.Xil/Vivado-2891-TowerOfPower/hw_ila_data_2/zip_work/waveform.vcd
$date
        2019-Jan-30 14:14:32
$end
$version
        Vivado v2018.3 (64-bit)
$end
$timescale
        1ps
$end
$scope module dut $end
$var reg 24 " hdmi_in_i/hdmi2rgb_0/U0/vid_pData [23:0] $end
$var reg 1 : hdmi_in_i/hdmi2rgb_0/U0/vid_pHSync $end
$var reg 1 ; u_ila_1_vid_pValid $end
$var reg 1 < hdmi_in_i/hdmi2rgb_0/U0/vid_pVDE $end
$var reg 1 = u_ila_1_vid_pVSync $end
$var reg 1 > _TRIGGER $end
$var reg 1 ? _WINDOW $end
$var reg 1 @ _GAP $end
$upscope $end
$enddefinitions $end
#0
$dumpvars
b10000000000000000 "
0:
1;
1<
0=
0>
1?
0@
$end
#1
0;
#2
1;
#3
0;
#4
1;
#5
0;
#6
1;
#7
0;
#8
1;
#9
0;
#10
1;
#11
0;
#12
1;
#13
0;
#14
1;
#15
0;
#16
1;
#17
0;
#18
1;
#19
0;
#20
1;
#21
0;
#22
1;
#23
0;
#24
1;
#25
0;
#26
1;
#27
0;
#28
1;
#29
0;
#30
1;
#31
0;
#32
1;
#33
0;
#34
1;
#35
0;
#36
1;
#37
0;
#38
1;
#39
0;
#40
1;
#41
0;
#42
1;
#43
0;
#44
1;
#45
0;
#46
1;
#47
0;
#48
1;
#49
0;
#50
1;
#51
0;
#52
1;
#53
0;
#54
1;
#55
0;
#56
1;
#57
0;
#58
1;
#59
0;
#60
1;
#61
0;
#62
1;
#63
0;
#64
1;
#65
0;
#66
1;
#67
0;
#68
1;
#69
0;
#70
1;
#71
0;
#72
1;
#73
0;
#74
1;
#75
0;
#76
1;
#77
0;
#78
1;
#79
0;
#80
1;
#81
0;
#82
1;
#83
0;
#84
1;
#85
0;
#86
1;
#87
0;
#88
1;
#89
0;
#90
1;
#91
0;
#93
1;
#94
0;
#95
1;
#96
0;
#97
1;
#98
0;
#99
1;
#100
0;
#101
1;
#102
0;
#103
1;
#104
0;
#105
1;
#106
0;
#107
1;
#108
0;
#109
1;
#110
0;
#111
1;
#112
0;
#113
1;
#114
0;
#115
1;
#116
0;
#117
1;
#118
0;
#119
1;
#120
0;
#121
1;
#122
0;
#123
1;
#124
0;
#125
1;
#126
0;
#127
1;
#128
0;
#129
1;
#130
0;
#131
1;
#132
0;
#133
1;
#134
0;
#135
1;
#136
0;
#137
1;
#138
0;
#139
1;
#140
0;
#141
1;
#142
0;
#143
1;
#144
0;
#145
1;
#146
0;
#147
1;
#148
0;
#149
1;
#150
0;
#151
1;
#152
0;
#153
1;
#154
0;
#155
1;
#156
0;
#157
1;
#158
0;
#159
1;
#160
0;
#161
1;
#162
0;
#163
1;
#164
0;
#165
1;
#166
0;
#167
1;
#168
0;
#169
1;
#170
0;
#171
1;
#172
0;
#173
1;
#174
0;
#175
1;
#176
0;
#177
1;
#178
0;
#179
1;
#180
0;
#181
1;
#182
0;
#183
1;
#184
0;
#185
1;
#186
0;
#187
1;
#188
0;
#189
1;
#190
0;
#191
1;
#192
0;
#194
1;
#195
0;
#196
1;
#197
0;
#198
1;
#199
0;
#200
1;
#201
0;
#202
1;
#203
0;
#204
1;
#205
0;
#206
1;
#207
0;
#208
1;
#209
0;
#210
1;
#211
0;
#212
1;
#213
0;
#214
1;
#215
0;
#216
1;
#217
0;
#218
1;
#219
0;
#220
1;
#221
0;
#222
1;
#223
0;
#224
1;
#225
0;
#226
1;
#227
0;
#228
1;
#229
0;
#230
1;
#231
0;
#232
1;
#233
0;
#234
1;
#235
0;
#236
1;
#237
0;
#238
1;
#239
0;
#240
1;
#241
0;
#242
1;
#243
0;
#244
1;
#245
0;
#246
1;
#247
0;
#248
1;
#249
0;
#250
1;
#251
0;
#252
1;
#253
0;
#254
1;
#255
0;
#256
1;
#257
0;
#258
1;
#259
0;
#260
1;
#261
0;
#262
1;
#263
0;
#264
1;
#265
0;
#266
1;
#267
0;
#268
1;
#269
0;
#270
1;
#271
0;
#272
1;
#273
0;
#274
1;
#275
0;
#276
1;
#277
0;
#278
1;
#279
0;
#280
1;
#281
0;
#282
1;
#283
0;
#284
1;
#285
0;
#286
1;
#287
0;
#288
1;
#289
0;
#290
1;
#291
0;
#293
1;
#294
0;
#295
1;
#296
0;
#297
1;
#298
0;
#299
1;
#300
0;
#301
1;
#302
0;
#303
1;
#304
0;
#305
1;
#306
0;
#307
1;
#308
0;
#309
1;
#310
0;
#311
1;
#312
0;
#313
1;
#314
0;
#315
1;
#316
0;
#317
1;
#318
0;
#319
1;
#320
0;
#321
1;
#322
0;
#323
1;
#324
0;
#325
1;
#326
0;
#327
1;
#328
0;
#329
1;
#330
0;
#331
1;
#332
0;
#333
1;
#334
0;
#335
1;
#336
0;
#337
1;
#338
0;
#339
1;
#340
0;
#341
1;
#342
0;
#343
1;
#344
0;
#345
1;
#346
0;
#347
1;
#348
0;
#349
1;
#350
0;
#351
1;
#352
0;
#353
1;
#354
0;
#355
1;
#356
0;
#357
1;
#358
0;
#359
1;
#360
0;
#361
1;
#362
0;
#363
1;
#364
0;
#365
1;
#366
0;
#367
1;
#368
0;
#369
1;
#370
0;
#371
1;
#372
0;
#373
1;
#374
0;
#375
1;
#376
0;
#377
1;
#378
0;
#379
1;
#380
0;
#381
1;
#382
0;
#383
1;
#384
0;
#385
1;
#386
0;
#387
1;
#388
0;
#389
1;
#390
0;
#391
1;
#392
0;
#394
1;
#395
0;
#396
1;
#397
0;
#398
1;
#399
0;
#400
1;
#401
0;
#402
1;
#403
0;
#404
1;
#405
0;
#406
1;
#407
0;
#408
1;
#409
0;
#410
1;
#411
0;
#412
1;
#413
0;
#414
1;
#415
0;
#416
1;
#417
0;
#418
1;
#419
0;
#420
1;
#421
0;
#422
1;
#423
0;
#424
1;
#425
0;
#426
1;
#427
0;
#428
1;
#429
0;
#430
1;
#431
0;
#432
1;
#433
0;
#434
1;
#435
0;
#436
1;
#437
0;
#438
1;
#439
0;
#440
1;
#441
0;
#442
1;
#443
0;
#444
1;
#445
0;
#446
1;
#447
0;
#448
1;
#449
0;
#450
1;
#451
0;
#452
1;
#453
0;
#454
1;
#455
0;
#456
1;
#457
0;
#458
1;
#459
0;
#460
1;
#461
0;
#462
1;
#463
0;
#464
1;
#465
0;
#466
1;
#467
0;
#468
1;
#469
0;
#470
1;
#471
0;
#472
1;
#473
0;
#474
1;
#475
0;
#476
1;
#477
0;
#478
1;
#479
0;
#480
1;
#481
0;
#482
1;
#483
0;
#484
1;
#485
0;
#486
1;
#487
0;
#488
1;
#489
0;
#490
1;
#491
0;
#492
1;
#493
0;
#495
1;
#496
0;
#497
1;
#498
0;
#499
1;
#500
0;
#501
1;
#502
0;
#503
1;
#504
0;
#505
1;
#506
0;
#507
1;
#508
0;
#509
1;
#510
0;
#511
1;
#512
0;
#513
1;
#514
0;
#515
1;
#516
0;
#517
1;
#518
0;
#519
1;
#520
0;
#521
1;
#522
0;
#523
1;
#524
0;
#525
1;
#526
0;
#527
1;
#528
0;
#529
1;
#530
0;
#531
1;
#532
0;
#533
1;
#534
0;
#535
1;
#536
0;
#537
1;
#538
0;
#539
1;
#540
0;
#541
1;
#542
0;
#543
1;
#544
0;
#545
1;
#546
0;
#547
1;
#548
0;
#549
1;
#550
0;
#551
1;
#552
0;
#553
1;
#554
0;
#555
1;
#556
0;
#557
1;
#558
0;
#559
1;
#560
0;
#561
1;
#562
0;
#563
1;
#564
0;
#565
1;
#566
0;
#567
1;
#568
0;
#569
1;
#570
0;
#571
1;
#572
0;
#573
1;
#574
0;
#575
1;
#576
0;
#577
1;
#578
0;
#579
1;
#580
0;
#581
1;
#582
0;
#583
1;
#584
0;
#585
1;
#586
0;
#587
1;
#588
0;
#589
1;
#590
0;
#591
1;
#592
0;
#594
1;
#595
0;
#596
1;
#597
0;
#598
1;
#599
0;
#600
1;
#601
0;
#602
1;
#603
0;
#604
1;
#605
0;
#606
1;
#607
0;
#608
1;
#609
0;
#610
1;
#611
0;
#612
1;
#613
0;
#614
1;
#615
0;
#616
1;
#617
0;
#618
1;
#619
0;
#620
1;
#621
0;
#622
1;
#623
0;
#624
1;
#625
0;
#626
1;
#627
0;
#628
1;
#629
0;
#630
1;
#631
0;
#632
1;
#633
0;
#634
1;
#635
0;
#636
1;
#637
0;
#638
1;
#639
0;
#640
1;
#641
0;
#642
1;
#643
0;
#644
1;
#645
0;
#646
1;
#647
0;
#648
1;
#649
0;
#650
1;
#651
0;
#652
1;
#653
0;
#654
1;
#655
0;
#656
1;
#657
0;
#658
1;
#659
0;
#660
1;
#661
0;
#662
1;
#663
0;
#664
1;
#665
0;
#666
1;
#667
0;
#668
1;
#669
0;
#670
1;
#671
0;
#672
1;
#673
0;
#674
1;
#675
0;
#676
1;
#677
0;
#678
1;
#679
0;
#680
1;
#681
0;
#682
1;
#683
0;
#684
1;
#685
0;
#686
1;
#687
0;
#688
1;
#689
0;
#690
1;
#691
0;
#693
1;
#694
0;
#695
1;
#696
0;
#697
1;
#698
0;
#699
1;
#700
0;
#701
1;
#702
0;
#703
1;
#704
0;
#705
1;
#706
0;
#707
1;
#708
0;
#709
1;
#710
0;
#711
1;
#712
0;
#713
1;
#714
0;
#715
1;
#716
0;
#717
1;
#718
0;
#719
1;
#720
0;
#721
1;
#722
0;
#723
1;
#724
0;
#725
1;
#726
0;
#727
1;
#728
0;
#729
1;
#730
0;
#731
1;
#732
0;
#733
1;
#734
0;
#735
1;
#736
0;
#737
1;
#738
0;
#739
1;
#740
0;
#741
1;
#742
0;
#743
1;
#744
0;
#745
1;
#746
0;
#747
1;
#748
0;
#749
1;
#750
0;
#751
1;
#752
0;
#753
1;
#754
0;
#755
1;
#756
0;
#757
1;
#758
0;
#759
1;
#760
0;
#761
1;
#762
0;
#763
1;
#764
0;
#765
1;
#766
0;
#767
1;
#768
0;
#769
1;
#770
0;
#771
1;
#772
0;
#773
1;
#774
0;
#775
1;
#776
0;
#777
1;
#778
0;
#779
1;
#780
0;
#781
1;
#782
0;
#783
1;
#784
0;
#785
1;
#786
0;
#787
1;
#788
0;
#789
1;
#790
0;
#791
1;
#792
0;
#794
1;
#795
0;
#796
1;
#797
0;
#798
1;
#799
0;
#800
1;
#801
0;
#802
1;
#803
0;
#804
1;
#805
0;
#806
1;
#807
0;
#808
1;
#809
0;
#810
1;
#811
0;
#812
1;
#813
0;
#814
1;
#815
0;
#816
1;
#817
0;
#818
1;
#819
0;
#820
1;
#821
0;
#822
1;
#823
0;
#824
1;
#825
0;
#826
1;
#827
0;
#828
1;
#829
0;
#830
1;
#831
0;
#832
1;
#833
0;
#834
1;
#835
0;
#836
1;
#837
0;
#838
1;
#839
0;
#840
1;
#841
0;
#842
1;
#843
0;
#844
1;
#845
0;
#846
1;
#847
0;
#848
1;
#849
0;
#850
1;
#851
0;
#852
1;
#853
0;
#854
1;
#855
0;
#856
1;
#857
0;
#858
1;
#859
0;
#860
1;
#861
0;
#862
1;
#863
0;
#864
1;
#865
0;
#866
1;
#867
0;
#868
1;
#869
0;
#870
1;
#871
0;
#872
1;
#873
0;
#874
1;
#875
0;
#876
1;
#877
0;
#878
1;
#879
0;
#880
1;
#881
0;
#882
1;
#883
0;
#884
1;
#885
0;
#886
1;
#887
0;
#888
1;
#889
0;
#890
1;
#891
0;
#892
1;
#893
0;
#895
1;
#896
0;
#897
1;
#898
0;
#899
1;
#900
0;
#901
1;
#902
0;
#903
1;
#904
0;
#905
1;
#906
0;
#907
1;
#908
0;
#909
1;
#910
0;
#911
1;
#912
0;
#913
1;
#914
0;
#915
1;
#916
0;
#917
1;
#918
0;
#919
1;
#920
0;
#921
1;
#922
0;
#923
1;
#924
0;
#925
1;
#926
0;
#927
1;
#928
0;
#929
1;
#930
0;
#931
1;
#932
0;
#933
1;
#934
0;
#935
1;
#936
0;
#937
1;
#938
0;
#939
1;
#940
0;
#941
1;
#942
0;
#943
1;
#944
0;
#945
1;
#946
0;
#947
1;
#948
0;
#949
1;
#950
0;
#951
1;
#952
0;
#953
1;
#954
0;
#955
1;
#956
0;
#957
1;
#958
0;
#959
1;
#960
0;
#961
1;
#962
0;
#963
1;
#964
0;
#965
1;
#966
0;
#967
1;
#968
0;
#969
1;
#970
0;
#971
1;
#972
0;
#973
1;
#974
0;
#975
1;
#976
0;
#977
1;
#978
0;
#979
1;
#980
0;
#981
1;
#982
0;
#983
1;
#984
0;
#985
1;
#986
0;
#987
1;
#988
0;
#989
1;
#990
0;
#991
1;
#992
0;
#993
1;
#994
0;
#996
1;
#997
0;
#998
1;
#999
0;
#1000
1;
#1001
0;
#1002
1;
#1003
0;
#1004
1;
#1005
0;
#1006
1;
#1007
0;
#1008
1;
#1009
0;
#1010
1;
#1011
0;
#1012
1;
#1013
0;
#1014
1;
#1015
0;
#1016
1;
#1017
0;
#1018
1;
#1019
0;
#1020
1;
#1021
0;
#1022
1;
#1023
0;
#1024
1;
#1025
0;
#1026
1;
#1027
0;
#1028
1;
#1029
0;
#1030
1;
#1031
0;
#1032
1;
#1033
0;
#1034
1;
#1035
0;
#1036
1;
#1037
0;
#1038
1;
#1039
0;
#1040
1;
#1041
0;
#1042
1;
#1043
0;
#1044
1;
#1045
0;
#1046
1;
#1047
0;
#1048
1;
#1049
0;
#1050
1;
#1051
0;
#1052
1;
#1053
0;
#1054
1;
#1055
0;
#1056
1;
#1057
0;
#1058
1;
#1059
0;
#1060
1;
#1061
0;
#1062
1;
#1063
0;
#1064
1;
#1065
0;
#1066
1;
#1067
0;
#1068
1;
#1069
0;
#1070
1;
#1071
0;
#1072
1;
#1073
0;
#1074
1;
#1075
0;
#1076
1;
#1077
0;
#1078
1;
#1079
0;
#1080
1;
#1081
0;
#1082
1;
#1083
0;
#1084
1;
#1085
0;
#1086
1;
#1087
0;
#1088
1;
#1089
0;
#1090
1;
#1091
0;
#1092
1;
#1093
0;
#1095
1;
#1096
0;
#1097
1;
#1098
0;
#1099
1;
#1100
0;
#1101
1;
#1102
0;
#1103
1;
#1104
0;
#1105
1;
#1106
0;
#1107
1;
#1108
0;
#1109
1;
#1110
0;
#1111
1;
#1112
0;
#1113
1;
#1114
0;
#1115
1;
#1116
0;
#1117
1;
#1118
0;
#1119
1;
#1120
0;
#1121
1;
#1122
0;
#1123
1;
#1124
0;
#1125
1;
#1126
0;
#1127
1;
#1128
0;
#1129
1;
#1130
0;
#1131
1;
#1132
0;
#1133
1;
#1134
0;
#1135
1;
#1136
0;
#1137
1;
#1138
0;
#1139
1;
#1140
0;
#1141
1;
#1142
0;
#1143
1;
#1144
0;
#1145
1;
#1146
0;
#1147
1;
#1148
0;
#1149
1;
#1150
0;
#1151
1;
#1152
0;
#1153
1;
#1154
0;
#1155
1;
#1156
0;
#1157
1;
#1158
0;
#1159
1;
#1160
0;
#1161
1;
#1162
0;
#1163
1;
#1164
0;
#1165
1;
#1166
0;
#1167
1;
#1168
0;
#1169
1;
#1170
0;
#1171
1;
#1172
0;
#1173
1;
#1174
0;
#1175
1;
#1176
0;
#1177
1;
#1178
0;
#1179
1;
#1180
0;
#1181
1;
#1182
0;
#1183
1;
#1184
0;
#1185
1;
#1186
0;
#1187
1;
#1188
0;
#1189
1;
#1190
0;
#1191
1;
#1192
0;
#1194
1;
#1195
0;
#1196
1;
#1197
0;
#1198
1;
#1199
0;
#1200
1;
#1201
0;
#1202
1;
#1203
0;
#1204
1;
#1205
0;
#1206
1;
#1207
0;
#1208
1;
#1209
0;
#1210
1;
#1211
0;
#1212
1;
#1213
0;
#1214
1;
#1215
0;
#1216
1;
#1217
0;
#1218
1;
#1219
0;
#1220
1;
#1221
0;
#1222
1;
#1223
0;
#1224
1;
#1225
0;
#1226
1;
#1227
0;
#1228
1;
#1229
0;
#1230
1;
#1231
0;
#1232
1;
#1233
0;
#1234
1;
#1235
0;
#1236
1;
#1237
0;
#1238
1;
#1239
0;
#1240
1;
#1241
0;
#1242
1;
#1243
0;
#1244
1;
#1245
0;
#1246
1;
#1247
0;
#1248
1;
#1249
0;
#1250
1;
#1251
0;
#1252
1;
#1253
0;
#1254
1;
#1255
0;
#1256
1;
#1257
0;
#1258
1;
#1259
0;
#1260
1;
#1261
0;
#1262
1;
#1263
0;
#1264
1;
#1265
0;
#1266
1;
#1267
0;
#1268
1;
#1269
0;
#1270
1;
#1271
0;
#1272
1;
#1273
0;
#1274
1;
#1275
0;
#1276
1;
#1277
0;
#1278
1;
#1279
0;
#1280
1;
#1281
0;
#1282
1;
#1283
0;
#1284
1;
#1285
0;
#1286
1;
#1287
0;
#1288
1;
#1289
0;
#1290
1;
#1291
0;
#1292
1;
#1293
0;
#1295
1;
#1296
0;
#1297
1;
#1298
0;
#1299
1;
#1300
0;
#1301
1;
#1302
0;
#1303
1;
#1304
0;
#1305
1;
#1306
0;
#1307
1;
#1308
0;
#1309
1;
#1310
0;
#1311
1;
#1312
0;
#1313
1;
#1314
0;
#1315
1;
#1316
0;
#1317
1;
#1318
0;
#1319
1;
#1320
0;
#1321
1;
#1322
0;
#1323
1;
#1324
0;
#1325
1;
#1326
0;
#1327
1;
#1328
0;
#1329
1;
#1330
0;
#1331
1;
#1332
0;
#1333
1;
#1334
0;
#1335
1;
#1336
0;
#1337
1;
#1338
0;
#1339
1;
#1340
0;
#1341
1;
#1342
0;
#1343
1;
#1344
0;
#1345
1;
#1346
0;
#1347
1;
#1348
0;
#1349
1;
#1350
0;
#1351
1;
#1352
0;
#1353
1;
#1354
0;
#1355
1;
#1356
0;
#1357
1;
#1358
0;
#1359
1;
#1360
0;
#1361
1;
#1362
0;
#1363
1;
#1364
0;
#1365
1;
#1366
0;
#1367
1;
#1368
0;
#1369
1;
#1370
0;
#1371
1;
#1372
0;
#1373
1;
#1374
0;
#1375
1;
#1376
0;
#1377
1;
#1378
0;
#1379
1;
#1380
0;
#1381
1;
#1382
0;
#1383
1;
#1384
0;
#1385
1;
#1386
0;
#1387
1;
#1388
0;
#1389
1;
#1390
0;
#1391
1;
#1392
0;
#1394
1;
#1395
0;
#1396
1;
#1397
0;
#1398
1;
#1399
0;
#1400
1;
#1401
0;
#1402
1;
#1403
0;
#1404
1;
#1405
0;
#1406
1;
#1407
0;
#1408
1;
#1409
0;
#1410
1;
#1411
0;
#1412
1;
#1413
0;
#1414
1;
#1415
0;
#1416
1;
#1417
0;
#1418
1;
#1419
0;
#1420
1;
#1421
0;
#1422
1;
#1423
0;
#1424
1;
#1425
0;
#1426
1;
#1427
0;
#1428
1;
#1429
0;
#1430
1;
#1431
0;
#1432
1;
#1433
0;
#1434
1;
#1435
0;
#1436
1;
#1437
0;
#1438
1;
#1439
0;
#1440
1;
#1441
0;
#1442
1;
#1443
0;
#1444
1;
#1445
0;
#1446
1;
#1447
0;
#1448
1;
#1449
0;
#1450
1;
#1451
0;
#1452
1;
#1453
0;
#1454
1;
#1455
0;
#1456
1;
#1457
0;
#1458
1;
#1459
0;
#1460
1;
#1461
0;
#1462
1;
#1463
0;
#1464
1;
#1465
0;
#1466
1;
#1467
0;
#1468
1;
#1469
0;
#1470
1;
#1471
0;
#1472
1;
#1473
0;
#1474
1;
#1475
0;
#1476
1;
#1477
0;
#1478
1;
#1479
0;
#1480
1;
#1481
0;
#1482
1;
#1483
0;
#1484
1;
#1485
0;
#1486
1;
#1487
0;
#1488
1;
#1489
0;
#1490
1;
#1491
0;
#1492
1;
#1493
0;
#1495
1;
#1496
0;
#1497
1;
#1498
0;
#1499
1;
#1500
0;
#1501
1;
#1502
0;
#1503
1;
#1504
0;
#1505
1;
#1506
0;
#1507
1;
#1508
0;
#1509
1;
#1510
0;
#1511
1;
#1512
0;
#1513
1;
#1514
0;
#1515
1;
#1516
0;
#1517
1;
#1518
0;
#1519
1;
#1520
0;
#1521
1;
#1522
0;
#1523
1;
#1524
0;
#1525
1;
#1526
0;
#1527
1;
#1528
0;
#1529
1;
#1530
0;
#1531
1;
#1532
0;
#1533
1;
#1534
0;
#1535
1;
#1536
0;
#1537
1;
#1538
0;
#1539
1;
#1540
0;
#1541
1;
#1542
0;
#1543
1;
#1544
0;
#1545
1;
#1546
0;
#1547
1;
#1548
0;
#1549
1;
#1550
0;
#1551
1;
#1552
0;
#1553
1;
#1554
0;
#1555
1;
#1556
0;
#1557
1;
#1558
0;
#1559
1;
#1560
0;
#1561
1;
#1562
0;
#1563
1;
#1564
0;
#1565
1;
#1566
0;
#1567
1;
#1568
0;
#1569
1;
#1570
0;
#1571
1;
#1572
0;
#1573
1;
#1574
0;
#1575
1;
#1576
0;
#1577
1;
#1578
0;
#1579
1;
#1580
0;
#1581
1;
#1582
0;
#1583
1;
#1584
0;
#1585
1;
#1586
0;
#1587
1;
#1588
0;
#1589
1;
#1590
0;
#1591
1;
#1592
0;
#1593
1;
#1594
0;
#1596
1;
#1597
0;
#1598
1;
#1599
0;
#1600
1;
#1601
0;
#1602
1;
#1603
0;
#1604
1;
#1605
0;
#1606
1;
#1607
0;
#1608
1;
#1609
0;
#1610
1;
#1611
0;
#1612
1;
#1613
0;
#1614
1;
#1615
0;
#1616
1;
#1617
0;
#1618
1;
#1619
0;
#1620
1;
#1621
0;
#1622
1;
#1623
0;
#1624
1;
#1625
0;
#1626
1;
#1627
0;
#1628
1;
#1629
0;
#1630
1;
#1631
0;
#1632
1;
#1633
0;
#1634
1;
#1635
0;
#1636
1;
#1637
0;
#1638
1;
#1639
0;
#1640
1;
#1641
0;
#1642
1;
#1643
0;
#1644
1;
#1645
0;
#1646
1;
#1647
0;
#1648
1;
#1649
0;
#1650
1;
#1651
0;
#1652
1;
#1653
0;
#1654
1;
#1655
0;
#1656
1;
#1657
0;
#1658
1;
#1659
0;
#1660
1;
#1661
0;
#1662
1;
#1663
0;
#1664
1;
#1665
0;
#1666
1;
#1667
0;
#1668
1;
#1669
0;
#1670
1;
#1671
0;
#1672
1;
#1673
0;
#1674
1;
#1675
0;
#1676
1;
#1677
0;
#1678
1;
#1679
0;
#1680
1;
#1681
0;
#1682
1;
#1683
0;
#1684
1;
#1685
0;
#1686
1;
#1687
0;
#1688
1;
#1689
0;
#1690
1;
#1691
0;
#1692
1;
#1693
0;
#1694
1;
#1695
0;
#1697
1;
#1698
0;
#1699
1;
#1700
0;
#1701
1;
#1702
0;
#1703
1;
#1704
0;
#1705
1;
#1706
0;
#1707
1;
#1708
0;
#1709
1;
#1710
0;
#1711
1;
#1712
0;
#1713
1;
#1714
0;
#1715
1;
#1716
0;
#1717
1;
#1718
0;
#1719
1;
#1720
0;
#1721
1;
#1722
0;
#1723
1;
#1724
0;
#1725
1;
#1726
0;
#1727
1;
#1728
0;
#1729
1;
#1730
0;
#1731
1;
#1732
0;
#1733
1;
#1734
0;
#1735
1;
#1736
0;
#1737
1;
#1738
0;
#1739
1;
#1740
0;
#1741
1;
#1742
0;
#1743
1;
#1744
0;
#1745
1;
#1746
0;
#1747
1;
#1748
0;
#1749
1;
#1750
0;
#1751
1;
#1752
0;
#1753
1;
#1754
0;
#1755
1;
#1756
0;
#1757
1;
#1758
0;
#1759
1;
#1760
0;
#1761
1;
#1762
0;
#1763
1;
#1764
0;
#1765
1;
#1766
0;
#1767
1;
#1768
0;
#1769
1;
#1770
0;
#1771
1;
#1772
0;
#1773
1;
#1774
0;
#1775
1;
#1776
0;
#1777
1;
#1778
0;
#1779
1;
#1780
0;
#1781
1;
#1782
0;
#1783
1;
#1784
0;
#1785
1;
#1786
0;
#1787
1;
#1788
0;
#1789
1;
#1790
0;
#1791
1;
#1792
0;
#1793
1;
#1794
0;
#1796
1;
#1797
0;
#1798
1;
#1799
0;
#1800
1;
#1801
0;
#1802
1;
#1803
0;
#1804
1;
#1805
0;
#1806
1;
#1807
0;
#1808
1;
#1809
0;
#1810
1;
#1811
0;
#1812
1;
#1813
0;
#1814
1;
#1815
0;
#1816
1;
#1817
0;
#1818
1;
#1819
0;
#1820
1;
#1821
0;
#1822
1;
#1823
0;
#1824
1;
#1825
0;
#1826
1;
#1827
0;
#1828
1;
#1829
0;
#1830
1;
#1831
0;
#1832
1;
#1833
0;
#1834
1;
#1835
0;
#1836
1;
#1837
0;
#1838
1;
#1839
0;
#1840
1;
#1841
0;
#1842
1;
#1843
0;
#1844
1;
#1845
0;
#1846
1;
#1847
0;
#1848
1;
#1849
0;
#1850
1;
#1851
0;
#1852
1;
#1853
0;
#1854
1;
#1855
0;
#1856
1;
#1857
0;
#1858
1;
#1859
0;
#1860
1;
#1861
0;
#1862
1;
#1863
0;
#1864
1;
#1865
0;
#1866
1;
#1867
0;
#1868
1;
#1869
0;
#1870
1;
#1871
0;
#1872
1;
#1873
0;
#1874
1;
#1875
0;
#1876
1;
#1877
0;
#1878
1;
#1879
0;
#1880
1;
#1881
0;
#1882
1;
#1883
0;
#1884
1;
#1885
0;
#1886
1;
#1887
0;
#1888
1;
#1889
0;
#1890
1;
#1891
0;
#1892
1;
#1893
0;
#1894
1;
#1895
0;
#1897
1;
#1898
0;
#1899
1;
#1900
0;
#1901
1;
#1902
0;
#1903
1;
#1904
0;
#1905
1;
#1906
0;
#1907
1;
#1908
0;
#1909
1;
#1910
0;
#1911
1;
#1912
0;
#1913
1;
#1914
0;
#1915
1;
#1916
0;
#1917
1;
#1918
0;
#1919
1;
#1920
0;
#1921
1;
#1922
0;
#1923
1;
#1924
0;
#1925
1;
#1926
0;
#1927
1;
#1928
0;
#1929
1;
#1930
0;
#1931
1;
#1932
0;
#1933
1;
#1934
0;
#1935
1;
#1936
0;
#1937
1;
#1938
0;
#1939
1;
#1940
0;
#1941
1;
#1942
0;
#1943
1;
#1944
0;
#1945
1;
#1946
0;
#1947
1;
#1948
0;
#1949
1;
#1950
0;
#1951
1;
#1952
0;
#1953
1;
#1954
0;
#1955
1;
#1956
0;
#1957
1;
#1958
0;
#1959
1;
#1960
0;
#1961
1;
#1962
0;
#1963
1;
#1964
0;
#1965
1;
#1966
0;
#1967
1;
#1968
0;
#1969
1;
#1970
0;
#1971
1;
#1972
0;
#1973
1;
#1974
0;
#1975
1;
#1976
0;
#1977
1;
#1978
0;
#1979
1;
#1980
0;
#1981
1;
#1982
0;
#1983
1;
#1984
0;
#1985
1;
#1986
0;
#1987
1;
#1988
0;
#1989
1;
#1990
0;
#1991
1;
#1992
0;
#1993
1;
#1994
0;
#1996
1;
#1997
0;
#1998
1;
#1999
0;
#2000
1;
#2001
0;
#2002
1;
#2003
0;
#2004
1;
#2005
0;
#2006
1;
#2007
0;
#2008
1;
#2009
0;
#2010
1;
#2011
0;
#2012
1;
#2013
0;
#2014
1;
#2015
0;
#2016
1;
#2017
0;
#2018
1;
#2019
0;
#2020
1;
#2021
0;
#2022
1;
#2023
0;
#2024
1;
#2025
0;
#2026
1;
#2027
0;
#2028
1;
#2029
0;
#2030
1;
#2031
0;
#2032
1;
#2033
0;
#2034
1;
#2035
0;
#2036
1;
#2037
0;
#2038
1;
#2039
0;
#2040
1;
#2041
0;
#2042
1;
#2043
0;
#2044
1;
#2045
0;
#2046
1;
#2047
0;
#2048
1;
#2049
0;
#2050
1;
#2051
0;
#2052
1;
#2053
0;
#2054
1;
#2055
0;
#2056
1;
#2057
0;
#2058
1;
#2059
0;
#2060
1;
#2061
0;
#2062
1;
#2063
0;
#2064
1;
#2065
0;
#2066
1;
#2067
0;
#2068
1;
#2069
0;
#2070
1;
#2071
0;
#2072
1;
#2073
0;
#2074
1;
#2075
0;
#2076
1;
#2077
0;
#2078
1;
#2079
0;
#2080
1;
#2081
0;
#2082
1;
#2083
0;
#2084
1;
#2085
0;
#2086
1;
#2087
0;
#2088
1;
#2089
0;
#2090
1;
#2091
0;
#2092
1;
#2093
0;
#2094
1;
#2095
0;
#2097
1;
#2098
0;
#2099
1;
#2100
0;
#2101
1;
#2102
0;
#2103
1;
#2104
0;
#2105
1;
#2106
0;
#2107
1;
#2108
0;
#2109
1;
#2110
0;
#2111
1;
#2112
0;
#2113
1;
#2114
0;
#2115
1;
#2116
0;
#2117
1;
#2118
0;
#2119
1;
#2120
0;
#2121
1;
#2122
0;
#2123
1;
#2124
0;
#2125
1;
#2126
0;
#2127
1;
#2128
0;
#2129
1;
#2130
0;
#2131
1;
#2132
0;
#2133
1;
#2134
0;
#2135
1;
#2136
0;
#2137
1;
#2138
0;
#2139
1;
#2140
0;
#2141
1;
#2142
0;
#2143
1;
#2144
0;
#2145
1;
#2146
0;
#2147
1;
#2148
0;
#2149
1;
#2150
0;
#2151
1;
#2152
0;
#2153
1;
#2154
0;
#2155
1;
#2156
0;
#2157
1;
#2158
0;
#2159
1;
#2160
0;
#2161
1;
#2162
0;
#2163
1;
#2164
0;
#2165
1;
#2166
0;
#2167
1;
#2168
0;
#2169
1;
#2170
0;
#2171
1;
#2172
0;
#2173
1;
#2174
0;
#2175
1;
#2176
0;
#2177
1;
#2178
0;
#2179
1;
#2180
0;
#2181
1;
#2182
0;
#2183
1;
#2184
0;
#2185
1;
#2186
0;
#2187
1;
#2188
0;
#2189
1;
#2190
0;
#2191
1;
#2192
0;
#2193
1;
#2194
0;
#2196
1;
#2197
0;
#2198
1;
#2199
0;
#2200
1;
#2201
0;
#2202
1;
#2203
0;
#2204
1;
#2205
0;
#2206
1;
#2207
0;
#2208
1;
#2209
0;
#2210
1;
#2211
0;
#2212
1;
#2213
0;
#2214
1;
#2215
0;
#2216
1;
#2217
0;
#2218
1;
#2219
0;
#2220
1;
#2221
0;
#2222
1;
#2223
0;
#2224
1;
#2225
0;
#2226
1;
#2227
0;
#2228
1;
#2229
0;
#2230
1;
#2231
0;
#2232
1;
#2233
0;
#2234
1;
#2235
0;
#2236
1;
#2237
0;
#2238
1;
#2239
0;
#2240
1;
#2241
0;
#2242
1;
#2243
0;
#2244
1;
#2245
0;
#2246
1;
#2247
0;
