vivado_proj/.Xil/Vivado-12532-TowerOfPower/hw_ila_data_2/zip_work/waveform.vcd
$date
        2019-Jan-16 17:44:14
$end
$version
        Vivado v2018.3 (64-bit)
$end
$timescale
        1ps
$end
$scope module dut $end
$var reg 24 " hdmi_in_i/hdmi2rgb_0/U0/vid_pData [23:0] $end
$var reg 1 : hdmi_in_i/hdmi2rgb_0/U0/vid_pHSync $end
$var reg 1 ; u_ila_1_vid_pValid $end
$var reg 1 < hdmi_in_i/hdmi2rgb_0/U0/vid_pVDE $end
$var reg 1 = u_ila_1_vid_pVSync $end
$var reg 1 > _TRIGGER $end
$var reg 1 ? _WINDOW $end
$var reg 1 @ _GAP $end
$upscope $end
$enddefinitions $end
#0
$dumpvars
b1111110011111101 "
0:
0;
1<
0=
0>
1?
0@
$end
#1
1;
#2
0;
#3
1;
#4
0;
#5
1;
#6
0;
#7
1;
#8
0;
#9
1;
#10
0;
#11
1;
#12
0;
#13
1;
#14
0;
#15
1;
#16
0;
#17
1;
#18
0;
#19
1;
#20
0;
#21
1;
#22
0;
#23
1;
#24
0;
#25
1;
#26
0;
#27
1;
#28
0;
#29
1;
#30
0;
#31
1;
#32
0;
#33
1;
#34
0;
#35
1;
#36
0;
#37
1;
#38
0;
#39
1;
#40
0;
#41
1;
#42
0;
#43
1;
#44
0;
#45
1;
#46
0;
#47
1;
#48
0;
#49
1;
#50
0;
#51
1;
#52
0;
#53
1;
#54
0;
#55
1;
#56
0;
#57
1;
#58
0;
#59
1;
#60
0;
#61
1;
#62
0;
#63
1;
#64
0;
#65
1;
#66
0;
#68
1;
#69
0;
#70
1;
#71
0;
#72
1;
#73
0;
#74
1;
#75
0;
#76
1;
#77
0;
#78
1;
#79
0;
#80
1;
#81
0;
#82
1;
#83
0;
#84
1;
#85
0;
#86
1;
#87
0;
#88
1;
#89
0;
#90
1;
#91
0;
#92
1;
#93
0;
#94
b1011101011011111111 "
1;
#95
0;
#96
b10101011001011111111 "
1;
#97
0;
#98
b11111000110011111111 "
1;
#99
0;
#100
b1011000001111111111 "
1;
#101
0;
#102
b111100011111000 "
1;
#103
0;
#104
b110111111101110 "
1;
#105
0;
#106
b100101111110011 "
1;
#107
0;
#108
b10010111111000 "
1;
#109
0;
#110
b11111101 "
1;
#111
0;
#112
1;
#113
0;
#114
1;
#115
0;
#116
1;
#117
0;
#118
1;
#119
0;
#120
1;
#121
0;
#122
1;
#123
0;
#124
1;
#125
0;
#126
1;
#127
0;
#128
1;
#129
0;
#130
1;
#131
0;
#132
1;
#133
0;
#134
1;
#135
0;
#136
1;
#137
0;
#138
1;
#139
0;
#140
1;
#141
0;
#142
1;
#143
0;
#144
1;
#145
0;
#146
1;
#147
0;
#148
1;
#149
0;
#150
1;
#151
0;
#152
1;
#153
0;
#154
1;
#155
0;
#156
1;
#157
0;
#158
1;
#159
0;
#160
1;
#161
0;
#162
1;
#163
0;
#164
1;
#165
0;
#166
1;
#167
0;
#169
1;
#170
0;
#171
1;
#172
0;
#173
1;
#174
0;
#175
1;
#176
0;
#177
1;
#178
0;
#179
1;
#180
0;
#181
1;
#182
0;
#183
1;
#184
0;
#185
1;
#186
0;
#187
1;
#188
0;
#189
1;
#190
0;
#191
1;
#192
0;
#193
1;
#194
0;
#195
1;
#196
0;
#197
1;
#198
0;
#199
1;
#200
0;
#201
1;
#202
0;
#203
1;
#204
0;
#205
1;
#206
0;
#207
1;
#208
0;
#209
1;
#210
0;
#211
1;
#212
0;
#213
1;
#214
0;
#215
1;
#216
0;
#217
1;
#218
0;
#219
1;
#220
0;
#221
1;
#222
0;
#223
1;
#224
0;
#225
1;
#226
0;
#227
1;
#228
0;
#229
1;
#230
0;
#231
1;
#232
0;
#233
1;
#234
0;
#235
1;
#236
0;
#237
1;
#238
0;
#239
1;
#240
0;
#241
1;
#242
0;
#243
1;
#244
0;
#245
1;
#246
0;
#247
1;
#248
0;
#249
1;
#250
0;
#251
1;
#252
0;
#253
1;
#254
0;
#255
1;
#256
0;
#257
1;
#258
0;
#259
1;
#260
0;
#261
1;
#262
0;
#263
1;
#264
0;
#265
1;
#266
0;
#268
1;
#269
0;
#270
1;
#271
0;
#272
1;
#273
0;
#274
1;
#275
0;
#276
1;
#277
0;
#278
1;
#279
0;
#280
1;
#281
0;
#282
1;
#283
0;
#284
1;
#285
0;
#286
1;
#287
0;
#288
1;
#289
0;
#290
1;
#291
0;
#292
1;
#293
0;
#294
1;
#295
0;
#296
1;
#297
0;
#298
1;
#299
0;
#300
1;
#301
0;
#302
1;
#303
0;
#304
1;
#305
0;
#306
1;
#307
0;
#308
1;
#309
0;
#310
1;
#311
0;
#312
1;
#313
0;
#314
1;
#315
0;
#316
1;
#317
0;
#318
1;
#319
0;
#320
1;
#321
0;
#322
1;
#323
0;
#324
1;
#325
0;
#326
1;
#327
0;
#328
1;
#329
0;
#330
1;
#331
0;
#332
1;
#333
0;
#334
1;
#335
0;
#336
1;
#337
0;
#338
1;
#339
0;
#340
1;
#341
0;
#342
1;
#343
0;
#344
1;
#345
0;
#346
1;
#347
0;
#348
1;
#349
0;
#350
1;
#351
0;
#352
1;
#353
0;
#354
1;
#355
0;
#356
1;
#357
0;
#358
1;
#359
0;
#360
1;
#361
0;
#362
1;
#363
0;
#364
1;
#365
0;
#366
1;
#367
0;
#369
1;
#370
0;
#371
1;
#372
0;
#373
b1110000011011111000100 "
1;
#374
0;
#375
b100011001000100101101111 "
1;
#376
0;
#377
b111000011101110000011001 "
1;
#378
0;
#379
b111111101111100100000000 "
1;
#380
0;
#381
1;
#382
0;
#383
1;
#384
0;
#385
1;
#386
0;
#387
1;
#388
0;
#389
1;
#390
0;
#391
1;
#392
0;
#393
1;
#394
0;
#395
1;
#396
0;
#397
1;
#398
0;
#399
1;
#400
0;
#401
1;
#402
0;
#403
1;
#404
0;
#405
1;
#406
0;
#407
1;
#408
0;
#409
1;
#410
0;
#411
1;
#412
0;
#413
1;
#414
0;
#415
1;
#416
0;
#417
1;
#418
0;
#419
1;
#420
0;
#421
1;
#422
0;
#423
1;
#424
0;
#425
1;
#426
0;
#427
1;
#428
0;
#429
1;
#430
0;
#431
1;
#432
0;
#433
1;
#434
0;
#435
1;
#436
0;
#437
1;
#438
0;
#439
1;
#440
0;
#441
1;
#442
0;
#443
1;
#444
0;
#445
1;
#446
0;
#447
1;
#448
0;
#449
1;
#450
0;
#451
1;
#452
0;
#453
1;
#454
0;
#455
1;
#456
0;
#457
1;
#458
0;
#459
1;
#460
0;
#461
1;
#462
0;
#463
1;
#464
0;
#465
1;
#466
0;
#468
1;
#469
0;
#470
1;
#471
0;
#472
1;
#473
0;
#474
1;
#475
0;
#476
1;
#477
0;
#478
1;
#479
0;
#480
1;
#481
0;
#482
1;
#483
0;
#484
1;
#485
0;
#486
1;
#487
0;
#488
1;
#489
0;
#490
1;
#491
0;
#492
1;
#493
0;
#494
1;
#495
0;
#496
1;
#497
0;
#498
1;
#499
0;
#500
1;
#501
0;
#502
1;
#503
0;
#504
1;
#505
0;
#506
1;
#507
0;
#508
1;
#509
0;
#510
1;
#511
0;
#512
1;
#513
0;
#514
1;
#515
0;
#516
1;
#517
0;
#518
1;
#519
0;
#520
1;
#521
0;
#522
1;
#523
0;
#524
1;
#525
0;
#526
1;
#527
0;
#528
1;
#529
0;
#530
1;
#531
0;
#532
1;
#533
0;
#534
1;
#535
0;
#536
1;
#537
0;
#538
1;
#539
0;
#540
1;
#541
0;
#542
1;
#543
0;
#544
1;
#545
0;
#546
1;
#547
0;
#548
1;
#549
0;
#550
1;
#551
0;
#552
1;
#553
0;
#554
1;
#555
0;
#556
1;
#557
0;
#558
1;
#559
0;
#560
1;
#561
0;
#562
1;
#563
0;
#564
1;
#565
0;
#567
1;
#568
0;
#569
1;
#570
0;
#571
1;
#572
0;
#573
1;
#574
0;
#575
1;
#576
0;
#577
1;
#578
0;
#579
1;
#580
0;
#581
1;
#582
0;
#583
1;
#584
0;
#585
1;
#586
0;
#587
1;
#588
0;
#589
1;
#590
0;
#591
1;
#592
0;
#593
1;
#594
0;
#595
1;
#596
0;
#597
1;
#598
0;
#599
1;
#600
0;
#601
1;
#602
0;
#603
1;
#604
0;
#605
1;
#606
0;
#607
1;
#608
0;
#609
1;
#610
0;
#611
1;
#612
0;
#613
1;
#614
0;
#615
1;
#616
0;
#617
1;
#618
0;
#619
1;
#620
0;
#621
1;
#622
0;
#623
1;
#624
0;
#625
1;
#626
0;
#627
1;
#628
0;
#629
1;
#630
0;
#631
1;
#632
0;
#633
1;
#634
0;
#635
1;
#636
0;
#637
1;
#638
0;
#639
1;
#640
0;
#641
1;
#642
0;
#643
1;
#644
0;
#645
1;
#646
0;
#647
1;
#648
0;
#649
1;
#650
0;
#651
b111111101101110100000000 "
1;
#652
0;
#653
b111111101000101000000000 "
1;
#654
0;
#655
b111111100011010100000000 "
1;
#656
0;
#657
b111111100000000000000000 "
1;
#658
0;
#659
1;
#660
0;
#661
1;
#662
0;
#663
1;
#664
0;
#665
1;
#666
0;
#668
1;
#669
0;
#670
1;
#671
0;
#672
1;
#673
0;
#674
1;
#675
0;
#676
1;
#677
0;
#678
1;
#679
0;
#680
1;
#681
0;
#682
1;
#683
0;
#684
1;
#685
0;
#686
1;
#687
0;
#688
1;
#689
0;
#690
1;
#691
0;
#692
1;
#693
0;
#694
1;
#695
0;
#696
1;
#697
0;
#698
1;
#699
0;
#700
1;
#701
0;
#702
1;
#703
0;
#704
1;
#705
0;
#706
1;
#707
0;
#708
1;
#709
0;
#710
1;
#711
0;
#712
1;
#713
0;
#714
1;
#715
0;
#716
1;
#717
0;
#718
1;
#719
0;
#720
1;
#721
0;
#722
1;
#723
0;
#724
1;
#725
0;
#726
1;
#727
0;
#728
1;
#729
0;
#730
1;
#731
0;
#732
1;
#733
0;
#734
1;
#735
0;
#736
1;
#737
0;
#738
1;
#739
0;
#740
1;
#741
0;
#742
1;
#743
0;
#744
1;
#745
0;
#746
1;
#747
0;
#748
1;
#749
0;
#750
1;
#751
0;
#752
1;
#753
0;
#754
1;
#755
0;
#756
1;
#757
0;
#758
1;
#759
0;
#760
1;
#761
0;
#762
1;
#763
0;
#764
1;
#765
0;
#766
1;
#767
0;
#769
1;
#770
0;
#771
1;
#772
0;
#773
1;
#774
0;
#775
1;
#776
0;
#777
1;
#778
0;
#779
1;
#780
0;
#781
1;
#782
0;
#783
1;
#784
0;
#785
1;
#786
0;
#787
1;
#788
0;
#789
1;
#790
0;
#791
1;
#792
0;
#793
1;
#794
0;
#795
1;
#796
0;
#797
1;
#798
0;
#799
1;
#800
0;
#801
1;
#802
0;
#803
1;
#804
0;
#805
1;
#806
0;
#807
1;
#808
0;
#809
1;
#810
0;
#811
1;
#812
0;
#813
1;
#814
0;
#815
1;
#816
0;
#817
1;
#818
0;
#819
1;
#820
0;
#821
1;
#822
0;
#823
1;
#824
0;
#825
1;
#826
0;
#827
1;
#828
0;
#829
1;
#830
0;
#831
1;
#832
0;
#833
1;
#834
0;
#835
1;
#836
0;
#837
1;
#838
0;
#839
1;
#840
0;
#841
1;
#842
0;
#843
1;
#844
0;
#845
1;
#846
0;
#847
1;
#848
0;
#849
1;
#850
0;
#851
1;
#852
0;
#853
1;
#854
0;
#855
1;
#856
0;
#857
1;
#858
0;
#859
1;
#860
0;
#861
1;
#862
0;
#863
1;
#864
0;
#865
1;
#866
0;
#867
1;
#868
0;
#870
1;
#871
0;
#872
1;
#873
0;
#874
1;
#875
0;
#876
1;
#877
0;
#878
1;
#879
0;
#880
1;
#881
0;
#882
1;
#883
0;
#884
1;
#885
0;
#886
1;
#887
0;
#888
1;
#889
0;
#890
1;
#891
0;
#892
1;
#893
0;
#894
1;
#895
0;
#896
1;
#897
0;
#898
1;
#899
0;
#900
1;
#901
0;
#902
1;
#903
0;
#904
1;
#905
0;
#906
1;
#907
0;
#908
1;
#909
0;
#910
1;
#911
0;
#912
1;
#913
0;
#914
1;
#915
0;
#916
1;
#917
0;
#918
1;
#919
0;
#920
1;
#921
0;
#922
1;
#923
0;
#924
1;
#925
0;
#926
1;
#927
0;
#928
1;
#929
0;
#930
1;
#931
0;
#932
b101010100100111100000000 "
1;
#933
0;
#934
b10101101010010000000000 "
1;
#935
0;
#936
b101111011100000000 "
1;
#937
0;
#938
b1111100100000000 "
1;
#939
0;
#940
1;
#941
0;
#942
1;
#943
0;
#944
1;
#945
0;
#946
1;
#947
0;
#948
1;
#949
0;
#950
1;
#951
0;
#952
1;
#953
0;
#954
1;
#955
0;
#956
1;
#957
0;
#958
1;
#959
0;
#960
1;
#961
0;
#962
1;
#963
0;
#964
1;
#965
0;
#966
1;
#967
0;
#969
1;
#970
0;
#971
1;
#972
0;
#973
1;
#974
0;
#975
1;
#976
0;
#977
1;
#978
0;
#979
1;
#980
0;
#981
1;
#982
0;
#983
1;
#984
0;
#985
1;
#986
0;
#987
1;
#988
0;
#989
1;
#990
0;
#991
1;
#992
0;
#993
1;
#994
0;
#995
1;
#996
0;
#997
1;
#998
0;
#999
1;
#1000
0;
#1001
1;
#1002
0;
#1003
1;
#1004
0;
#1005
1;
#1006
0;
#1007
1;
#1008
0;
#1009
1;
#1010
0;
#1011
1;
#1012
0;
#1013
1;
#1014
0;
#1015
1;
#1016
0;
#1017
1;
#1018
0;
#1019
1;
#1020
0;
#1021
1;
#1022
0;
#1023
1;
#1024
0;
#1025
1;
#1026
0;
#1027
1;
#1028
0;
#1029
1;
#1030
0;
#1031
1;
#1032
0;
#1033
1;
#1034
0;
#1035
1;
#1036
0;
#1037
1;
#1038
0;
#1039
1;
#1040
0;
#1041
1;
#1042
0;
#1043
1;
#1044
0;
#1045
1;
#1046
0;
#1047
1;
#1048
0;
#1049
1;
#1050
0;
#1051
1;
#1052
0;
#1053
1;
#1054
0;
#1055
1;
#1056
0;
#1057
1;
#1058
0;
#1059
1;
#1060
0;
#1061
1;
#1062
0;
#1063
1;
#1064
0;
#1065
1;
#1066
0;
#1067
1;
#1068
0;
#1070
1;
#1071
0;
#1072
1;
#1073
0;
#1074
1;
#1075
0;
#1076
1;
#1077
0;
#1078
1;
#1079
0;
#1080
1;
#1081
0;
#1082
1;
#1083
0;
#1084
1;
#1085
0;
#1086
1;
#1087
0;
#1088
1;
#1089
0;
#1090
1;
#1091
0;
#1092
1;
#1093
0;
#1094
1;
#1095
0;
#1096
1;
#1097
0;
#1098
1;
#1099
0;
#1100
1;
#1101
0;
#1102
1;
#1103
0;
#1104
1;
#1105
0;
#1106
1;
#1107
0;
#1108
1;
#1109
0;
#1110
1;
#1111
0;
#1112
1;
#1113
0;
#1114
1;
#1115
0;
#1116
1;
#1117
0;
#1118
1;
#1119
0;
#1120
1;
#1121
0;
#1122
1;
#1123
0;
#1124
1;
#1125
0;
#1126
1;
#1127
0;
#1128
1;
#1129
0;
#1130
1;
#1131
0;
#1132
1;
#1133
0;
#1134
1;
#1135
0;
#1136
1;
#1137
0;
#1138
1;
#1139
0;
#1140
1;
#1141
0;
#1142
1;
#1143
0;
#1144
1;
#1145
0;
#1146
1;
#1147
0;
#1148
1;
#1149
0;
#1150
1;
#1151
0;
#1152
1;
#1153
0;
#1154
1;
#1155
0;
#1156
1;
#1157
0;
#1158
1;
#1159
0;
#1160
1;
#1161
0;
#1162
1;
#1163
0;
#1164
1;
#1165
0;
#1166
1;
#1167
0;
#1169
1;
#1170
0;
#1171
1;
#1172
0;
#1173
1;
#1174
0;
#1175
1;
#1176
0;
#1177
1;
#1178
0;
#1179
1;
#1180
0;
#1181
1;
#1182
0;
#1183
1;
#1184
0;
#1185
1;
#1186
0;
#1187
1;
#1188
0;
#1189
1;
#1190
0;
#1191
1;
#1192
0;
#1193
1;
#1194
0;
#1195
1;
#1196
0;
#1197
1;
#1198
0;
#1199
1;
#1200
0;
#1201
1;
#1202
0;
#1203
1;
#1204
0;
#1205
1;
#1206
0;
#1207
1;
#1208
0;
#1209
1;
#1210
0;
#1211
b0 "
1;
#1212
0;
#1213
1;
#1214
0;
#1215
1;
#1216
0;
#1217
1;
#1218
0;
#1219
1;
#1220
0;
#1221
1;
#1222
0;
#1223
1;
#1224
0;
#1225
1;
#1226
0;
#1227
1;
#1228
0;
#1229
1;
#1230
0;
#1231
1;
#1232
0;
#1233
1;
#1234
0;
#1235
1;
#1236
0;
#1237
1;
#1238
0;
#1239
1;
#1240
0;
#1241
1;
#1242
0;
#1243
1;
#1244
0;
#1245
1;
#1246
0;
#1247
1;
#1248
0;
#1249
1;
#1250
0;
#1251
1;
#1252
0;
#1253
1;
#1254
0;
#1255
1;
#1256
0;
#1257
1;
#1258
0;
#1259
1;
#1260
0;
#1261
1;
#1262
0;
#1263
1;
#1264
0;
#1265
1;
#1266
0;
#1267
1;
#1268
0;
#1270
1;
#1271
0;
#1272
1;
#1273
0;
#1274
1;
#1275
0;
#1276
1;
#1277
0;
#1278
1;
#1279
0;
#1280
1;
#1281
0;
#1282
1;
#1283
0;
#1284
1;
#1285
0;
#1286
1;
#1287
0;
#1288
1;
#1289
0;
#1290
1;
#1291
0;
#1292
1;
#1293
0;
#1294
1;
#1295
0;
#1296
1;
#1297
0;
#1298
1;
#1299
0;
#1300
1;
#1301
0;
#1302
1;
#1303
0;
#1304
1;
#1305
0;
#1306
1;
#1307
0;
#1308
1;
#1309
0;
#1310
1;
#1311
0;
#1312
1;
#1313
0;
#1314
1;
#1315
0;
#1316
1;
#1317
0;
#1318
1;
#1319
0;
#1320
1;
#1321
0;
#1322
1;
#1323
0;
#1324
1;
#1325
0;
#1326
1;
#1327
0;
#1328
1;
#1329
0;
#1330
1;
#1331
0;
#1332
1;
#1333
0;
#1334
1;
#1335
0;
#1336
1;
#1337
0;
#1338
1;
#1339
0;
#1340
1;
#1341
0;
#1342
1;
#1343
0;
#1344
1;
#1345
0;
#1346
1;
#1347
0;
#1348
1;
#1349
0;
#1350
1;
#1351
0;
#1352
1;
#1353
0;
#1354
1;
#1355
0;
#1356
1;
#1357
0;
#1358
1;
#1359
0;
#1360
1;
#1361
0;
#1362
1;
#1363
0;
#1364
1;
#1365
0;
#1366
1;
#1367
0;
#1368
1;
#1369
0;
#1371
1;
#1372
0;
#1373
1;
#1374
0;
#1375
1;
#1376
0;
#1377
1;
#1378
0;
#1379
1;
#1380
0;
#1381
1;
#1382
0;
#1383
1;
#1384
0;
#1385
1;
#1386
0;
#1387
1;
#1388
0;
#1389
1;
#1390
0;
#1391
1;
#1392
0;
#1393
1;
#1394
0;
#1395
1;
#1396
0;
#1397
1;
#1398
0;
#1399
1;
#1400
0;
#1401
1;
#1402
0;
#1403
1;
#1404
0;
#1405
1;
#1406
0;
#1407
1;
#1408
0;
#1409
1;
#1410
0;
#1411
1;
#1412
0;
#1413
1;
#1414
0;
#1415
1;
#1416
0;
#1417
1;
#1418
0;
#1419
1;
#1420
0;
#1421
1;
#1422
0;
#1423
1;
#1424
0;
#1425
1;
#1426
0;
#1427
1;
#1428
0;
#1429
1;
#1430
0;
#1431
1;
#1432
0;
#1433
1;
#1434
0;
#1435
1;
#1436
0;
#1437
1;
#1438
0;
#1439
1;
#1440
0;
#1441
1;
#1442
0;
#1443
1;
#1444
0;
#1445
1;
#1446
0;
#1447
1;
#1448
0;
#1449
1;
#1450
0;
#1451
1;
#1452
0;
#1453
1;
#1454
0;
#1455
1;
#1456
0;
#1457
1;
#1458
0;
#1459
1;
#1460
0;
#1461
1;
#1462
0;
#1463
1;
#1464
0;
#1465
1;
#1466
0;
#1467
1;
#1468
0;
#1470
1;
#1471
0;
#1472
1;
#1473
0;
#1474
1;
#1475
0;
#1476
1;
#1477
0;
#1478
1;
#1479
0;
#1480
1;
#1481
0;
#1482
1;
#1483
0;
#1484
1;
#1485
0;
#1486
1;
#1487
0;
#1488
1;
#1489
0;
#1490
1;
#1491
0;
#1492
1;
#1493
0;
#1494
1;
#1495
0;
#1496
1;
#1497
0;
#1498
1;
#1499
0;
#1500
1;
#1501
0;
#1502
1;
#1503
0;
#1504
1;
#1505
0;
#1506
1;
#1507
0;
#1508
1;
#1509
0;
#1510
1;
#1511
0;
#1512
1;
#1513
0;
#1514
1;
#1515
0;
#1516
1;
#1517
0;
#1518
1;
#1519
0;
#1520
1;
#1521
0;
#1522
1;
#1523
0;
#1524
1;
#1525
0;
#1526
1;
#1527
0;
#1528
1;
#1529
0;
#1530
1;
#1531
0;
#1532
1;
#1533
0;
#2282
1;
#2283
0;
#2284
1;
#2285
0;
#2286
1;
#2287
0;
#2288
1;
#2289
0;
#2290
1;
#2291
0;
#2292
1;
#2293
0;
#2294
1;
#2295
0;
#2296
1;
#2297
0;
#2298
1;
#2299
0;
#2300
1;
#2301
0;
#2302
1;
#2303
0;
#2304
1;
#2305
0;
#2306
1;
#2307
0;
#2308
1;
#2309
0;
#2310
1;
#2311
0;
#2312
1;
#2313
0;
#2314
1;
#2315
0;
#2316
1;
#2317
0;
#2318
1;
#2319
0;
#2320
1;
#2321
0;
#2322
1;
#2323
0;
#2324
1;
#2325
0;
#2326
1;
#2327
0;
#2328
1;
#2329
0;
#2330
1;
#2331
0;
#2332
1;
#2333
0;
#2334
1;
#2335
0;
#2336
1;
#2337
0;
#2338
1;
#2339
0;
#2340
1;
#2341
0;
#2342
1;
#2343
0;
#2344
1;
#2345
0;
#2346
1;
#2347
0;
#2348
1;
#2349
0;
#2350
1;
#2351
0;
#2352
1;
#2353
0;
#2354
1;
#2355
0;
#2356
1;
#2357
0;
#2358
1;
#2359
0;
#2360
1;
#2361
0;
#2362
1;
#2363
0;
#2364
1;
#2365
0;
#2366
1;
#2367
0;
#2368
1;
#2369
0;
#2371
1;
#2372
0;
#2373
1;
#2374
0;
#2375
1;
#2376
0;
#2377
1;
#2378
0;
#2379
1;
#2380
0;
#2381
1;
#2382
0;
#2383
1;
#2384
0;
#2385
1;
#2386
0;
#2387
1;
#2388
0;
#2389
1;
#2390
0;
#2391
1;
#2392
0;
#2393
1;
#2394
0;
#2395
1;
#2396
0;
#2397
1;
#2398
0;
#2399
1;
#2400
0;
#2401
1;
#2402
0;
#2403
1;
#2404
0;
#2405
1;
#2406
0;
#2407
1;
#2408
0;
#2409
1;
#2410
0;
#2411
1;
#2412
0;
#2413
1;
#2414
0;
#2415
1;
#2416
0;
#2417
1;
#2418
0;
#2419
1;
#2420
0;
#2421
1;
#2422
0;
#2423
1;
#2424
0;
#2425
1;
#2426
0;
#2427
1;
#2428
0;
#2429
1;
#2430
0;
#2431
1;
#2432
0;
#2433
1;
#2434
0;
#2435
1;
#2436
0;
#2437
1;
#2438
0;
#2439
1;
#2440
0;
#2441
1;
#2442
0;
#2443
1;
#2444
0;
#2445
1;
#2446
0;
#2447
1;
#2448
0;
#2449
1;
#2450
0;
#2451
1;
#2452
0;
#2453
1;
#2454
0;
#2455
1;
#2456
0;
#2457
1;
#2458
0;
#2459
1;
#2460
0;
#2461
1;
#2462
0;
#2463
1;
#2464
0;
#2465
1;
#2466
0;
#2467
1;
#2468
0;
#2469
1;
#2470
0;
#2472
1;
#2473
0;
#2474
1;
#2475
0;
#2476
1;
#2477
0;
#2478
1;
#2479
0;
#2480
1;
#2481
0;
#2482
1;
#2483
0;
#2484
1;
#2485
0;
#2486
1;
#2487
0;
#2488
1;
#2489
0;
#2490
1;
#2491
0;
#2492
1;
#2493
0;
#2494
1;
#2495
0;
#2496
1;
#2497
0;
#2498
1;
#2499
0;
#2500
1;
#2501
0;
#2502
1;
#2503
0;
#2504
1;
#2505
0;
#2506
1;
#2507
0;
#2508
1;
#2509
0;
#2510
1;
#2511
0;
#2512
1;
#2513
0;
#2514
1;
#2515
0;
#2516
1;
#2517
0;
#2518
1;
#2519
0;
#2520
1;
#2521
0;
#2522
1;
#2523
0;
#2524
1;
#2525
0;
#2526
1;
#2527
0;
#2528
1;
#2529
0;
#2530
1;
#2531
0;
#2532
1;
#2533
0;
#2534
1;
#2535
0;
#2536
1;
#2537
0;
#2538
1;
#2539
0;
#2540
1;
#2541
0;
#2542
1;
#2543
0;
#2544
1;
#2545
0;
#2546
1;
#2547
0;
#2548
1;
#2549
0;
#2550
1;
#2551
0;
#2552
1;
#2553
0;
#2554
1;
#2555
0;
#2556
1;
#2557
0;
#2558
1;
#2559
0;
#2560
1;
#2561
0;
#2562
1;
#2563
0;
#2564
1;
#2565
0;
#2566
1;
#2567
0;
#2568
1;
#2569
0;
#2571
1;
#2572
0;
#2573
1;
#2574
0;
#2575
1;
#2576
0;
#2577
1;
#2578
0;
#2579
1;
#2580
0;
#2581
1;
#2582
0;
#2583
1;
#2584
0;
#2585
1;
#2586
0;
#2587
1;
#2588
0;
#2589
1;
#2590
0;
#2591
1;
#2592
0;
#2593
1;
#2594
0;
#2595
1;
#2596
0;
#2597
1;
#2598
0;
#2599
1;
#2600
0;
#2601
1;
#2602
0;
#2603
1;
#2604
0;
#2605
b111111111111110011111101 "
1;
#2606
0;
#2607
1;
#2608
0;
#2609
1;
#2610
0;
#2611
1;
#2612
0;
#2613
1;
#2614
0;
#2615
1;
#2616
0;
#2617
1;
#2618
0;
#2619
1;
#2620
0;
#2621
1;
#2622
0;
#2623
1;
#2624
0;
#2625
1;
#2626
0;
#2627
1;
#2628
0;
#2629
1;
#2630
0;
#2631
1;
#2632
0;
#2633
1;
#2634
0;
#2635
1;
#2636
0;
#2637
1;
#2638
0;
#2639
1;
#2640
0;
#2641
1;
#2642
0;
#2643
1;
#2644
0;
#2645
1;
#2646
0;
#2647
1;
#2648
0;
#2649
1;
#2650
0;
#2651
1;
#2652
0;
#2653
1;
#2654
0;
#2655
1;
#2656
0;
#2657
1;
#2658
0;
#2659
1;
#2660
0;
#2661
1;
#2662
0;
#2663
1;
#2664
0;
#2665
1;
#2666
0;
#2667
1;
#2668
0;
#2669
1;
#2670
0;
#2671
1;
#2672
0;
#2674
1;
#2675
0;
#2676
1;
#2677
0;
#2678
1;
#2679
0;
#2680
1;
#2681
0;
#2682
1;
#2683
0;
#2684
1;
#2685
0;
#2686
1;
#2687
0;
#2688
1;
#2689
0;
#2690
1;
#2691
0;
#2692
1;
#2693
0;
#2694
1;
#2695
0;
#2696
1;
#2697
0;
#2698
1;
#2699
0;
#2700
1;
#2701
0;
#2702
1;
#2703
0;
#2704
1;
#2705
0;
#2706
1;
#2707
0;
#2708
1;
#2709
0;
#2710
1;
#2711
0;
#2712
1;
#2713
0;
#2714
1;
#2715
0;
#2716
1;
#2717
0;
#2718
1;
#2719
0;
#2720
1;
#2721
0;
#2722
1;
#2723
0;
#2724
1;
#2725
0;
#2726
1;
#2727
0;
#2728
1;
#2729
0;
#2730
1;
#2731
0;
#2732
1;
#2733
0;
#2734
1;
#2735
0;
#2736
1;
#2737
0;
#2738
1;
#2739
0;
#2740
1;
#2741
0;
#2742
1;
#2743
0;
#2744
1;
#2745
0;
#2746
1;
#2747
0;
#2748
1;
#2749
0;
#2750
1;
#2751
0;
#2752
1;
#2753
0;
#2754
1;
#2755
0;
#2756
1;
#2757
0;
#2758
1;
#2759
0;
#2760
1;
#2761
0;
#2762
1;
#2763
0;
#2764
1;
#2765
0;
#2766
1;
#2767
0;
#2768
1;
#2769
0;
#2770
1;
#2771
0;
#2773
1;
#2774
0;
#2775
1;
#2776
0;
#2777
1;
#2778
0;
#2779
1;
#2780
0;
#2781
1;
#2782
0;
#2783
1;
#2784
0;
#2785
1;
#2786
0;
#2787
1;
#2788
0;
#2789
1;
#2790
0;
#2791
1;
#2792
0;
#2793
1;
#2794
0;
#2795
1;
#2796
0;
#2797
1;
#2798
0;
#2799
1;
#2800
0;
#2801
1;
#2802
0;
#2803
1;
#2804
0;
#2805
1;
#2806
0;
#2807
1;
#2808
0;
#2809
1;
#2810
0;
#2811
1;
#2812
0;
#2813
1;
#2814
0;
#2815
1;
#2816
0;
#2817
1;
#2818
0;
#2819
1;
#2820
0;
#2821
1;
#2822
0;
#2823
1;
#2824
0;
#2825
1;
#2826
0;
#2827
1;
#2828
0;
#2829
1;
#2830
0;
#2831
1;
#2832
0;
#2833
1;
#2834
0;
#2835
1;
#2836
0;
#2837
1;
#2838
0;
#2839
1;
#2840
0;
#2841
1;
#2842
0;
#2843
1;
#2844
0;
#2845
1;
#2846
0;
#2847
1;
#2848
0;
#2849
1;
#2850
0;
#2851
1;
#2852
0;
#2853
1;
#2854
0;
#2855
1;
#2856
0;
#2857
1;
#2858
0;
#2859
1;
#2860
0;
#2861
1;
#2862
0;
#2863
1;
#2864
0;
#2865
1;
#2866
0;
#2867
b111111111110001011111111 "
1;
#2868
0;
#2869
b111111111011111011111111 "
1;
#2870
0;
#2871
b111111111001100011111111 "
1;
#2872
0;
#2874
b111111111000010111111111 "
1;
#2875
0;
#2876
b111111010111110011111011 "
1;
#2877
0;
#2878
b111100110111001011110001 "
1;
#2879
0;
#2880
b111100110101011111110001 "
1;
#2881
0;
#2882
b111110000011000111110110 "
1;
#2883
0;
#2884
b111111000000101111111011 "
1;
#2885
0;
#2886
b111111100000000011111101 "
1;
#2887
0;
#2888
1;
#2889
0;
#2890
1;
#2891
0;
#2892
1;
#2893
0;
#2894
1;
#2895
0;
#2896
1;
#2897
0;
#2898
1;
#2899
0;
#2900
1;
#2901
0;
#2902
1;
#2903
0;
#2904
1;
#2905
0;
#2906
1;
#2907
0;
#2908
1;
#2909
0;
#2910
1;
#2911
0;
#2912
1;
#2913
0;
#2914
1;
#2915
0;
#2916
1;
#2917
0;
#2918
1;
#2919
0;
#2920
1;
#2921
0;
#2922
1;
#2923
0;
#2924
1;
#2925
0;
#2926
1;
#2927
0;
#2928
1;
#2929
0;
#2930
1;
#2931
0;
#2932
1;
#2933
0;
#2934
1;
#2935
0;
#2936
1;
#2937
0;
#2938
1;
#2939
0;
#2940
1;
#2941
0;
#2942
1;
